(footprint "ETROC 10x10 0.15 Pads" (version 20211014) (generator pcbnew)
  (layer "F.Cu")
  (tedit 0)
  (attr smd)
  (fp_text reference "REF**" (at 0 -7.5 unlocked) (layer "F.SilkS")
    (effects (font (size 1 1) (thickness 0.15)))
    (tstamp b0d3b61a-60a6-4bc4-b4b3-df57dca84a78)
  )
  (fp_text value "ETROC 10x10 0.15 Pads" (at 0 7.6 unlocked) (layer "F.Fab")
    (effects (font (size 1 1) (thickness 0.15)))
    (tstamp e754d279-8fcb-41e3-9b15-d3ca0e7a737e)
  )
  (fp_text user "${REFERENCE}" (at 0 8.9 unlocked) (layer "F.Fab")
    (effects (font (size 1 1) (thickness 0.15)))
    (tstamp 3b0f316b-5f2d-4af8-94da-335e39424091)
  )
  (fp_rect (start -6.175 -6.175) (end -5.525 -5.525) (layer "F.SilkS") (width 0.12) (fill none) (tstamp 1d532793-5489-477f-878a-b527bee4b9e6))
  (fp_rect (start -6.8 -6.8) (end 6.8 6.8) (layer "F.SilkS") (width 0.12) (fill none) (tstamp b40e7097-60ad-45ea-a467-8e84c47c96fd))
  (fp_line (start -6.5 -1.3) (end 6.5 -1.3) (layer "Dwgs.User") (width 0.12) (tstamp 04847db8-4b74-49b9-be77-87c069a9ffcb))
  (fp_line (start 6.5 -2.6) (end -6.5 -2.6) (layer "Dwgs.User") (width 0.12) (tstamp 1e90ba27-aec1-46c2-bac5-932c51b60464))
  (fp_line (start -2.6 -6.5) (end -2.6 6.5) (layer "Dwgs.User") (width 0.12) (tstamp 2f6f9a60-0886-4484-b87b-0ff6956c9e62))
  (fp_line (start -3.9 6.5) (end -3.9 -6.5) (layer "Dwgs.User") (width 0.12) (tstamp 3185f1b6-a270-4261-b643-5afa503a20c2))
  (fp_line (start -6.5 1.3) (end 6.5 1.3) (layer "Dwgs.User") (width 0.12) (tstamp 425eac2c-ae64-486f-9cb4-2d86fc5e753f))
  (fp_line (start -1.3 6.5) (end -1.3 -6.5) (layer "Dwgs.User") (width 0.12) (tstamp 47e16931-f068-41e8-97e9-aa409f13f399))
  (fp_line (start -6.5 -3.9) (end 6.5 -3.9) (layer "Dwgs.User") (width 0.12) (tstamp 588d5ba9-a2f5-4ef5-a82e-ec2f0a17105c))
  (fp_line (start 2.6 -6.5) (end 2.6 6.5) (layer "Dwgs.User") (width 0.12) (tstamp 6cdf25ec-2f36-49fb-b6ed-e2bb5c18d651))
  (fp_line (start -5.2 -6.5) (end -5.2 6.5) (layer "Dwgs.User") (width 0.12) (tstamp 77490294-46a5-402f-a026-cfb0de3af5b1))
  (fp_line (start 6.5 -5.2) (end -6.5 -5.2) (layer "Dwgs.User") (width 0.12) (tstamp a120ead1-c7d5-4110-af82-b3d27dcabd02))
  (fp_line (start 0 -6.5) (end 0 6.5) (layer "Dwgs.User") (width 0.12) (tstamp ad8f30e2-70a4-4443-8339-24cdcf5984a6))
  (fp_line (start -6.5 3.9) (end 6.5 3.9) (layer "Dwgs.User") (width 0.12) (tstamp bdfdf14c-c5f7-443a-81db-13c402e0a29c))
  (fp_line (start 5.2 -6.5) (end 5.2 6.5) (layer "Dwgs.User") (width 0.12) (tstamp c3dfec3b-5534-452a-a65f-6c9faad17f2f))
  (fp_line (start 1.3 6.5) (end 1.3 -6.5) (layer "Dwgs.User") (width 0.12) (tstamp dacc91fc-003d-4435-967b-61461f541380))
  (fp_line (start 3.9 6.5) (end 3.9 -6.5) (layer "Dwgs.User") (width 0.12) (tstamp de4f7e17-6ec0-4067-b936-d73269ea2a67))
  (fp_line (start 6.5 0) (end -6.5 0) (layer "Dwgs.User") (width 0.12) (tstamp ec4a913e-dc62-4992-b178-bbef754ace4c))
  (fp_line (start 6.5 5.2) (end -6.5 5.2) (layer "Dwgs.User") (width 0.12) (tstamp f1053299-31ad-414e-af3f-fd5a8ea60bf1))
  (fp_line (start 6.5 2.6) (end -6.5 2.6) (layer "Dwgs.User") (width 0.12) (tstamp f4185f9b-83bd-4edf-9ddb-4ca3572ea5a9))
  (fp_rect (start -6.5 -6.5) (end 6.5 6.5) (layer "Dwgs.User") (width 0.12) (fill none) (tstamp 0f71993e-21c4-4fc1-86a6-d482e2b70f94))
  (fp_rect (start -6.8 -6.8) (end 6.8 6.8) (layer "F.CrtYd") (width 0.05) (fill none) (tstamp 38460306-afe6-4161-97bc-d7c313450501))
  (pad "1" smd circle (at -5.85 -5.85) (size 0.15 0.15) (layers "F.Cu" "F.Paste" "F.Mask") (tstamp 87edf5a0-9682-4ced-8a20-5545d329a466))
  (pad "2" smd circle (at -5.85 -4.55) (size 0.15 0.15) (layers "F.Cu" "F.Paste" "F.Mask") (tstamp 124e789c-4172-4497-8583-576b873741e0))
  (pad "3" smd circle (at -5.85 -3.25) (size 0.15 0.15) (layers "F.Cu" "F.Paste" "F.Mask") (tstamp 5192e0a4-6511-4357-8c75-bb7725f174b8))
  (pad "4" smd circle (at -5.85 -1.95) (size 0.15 0.15) (layers "F.Cu" "F.Paste" "F.Mask") (tstamp 220d4d97-c810-4277-a0df-80ead7ed7a4c))
  (pad "5" smd circle (at -5.85 -0.65) (size 0.15 0.15) (layers "F.Cu" "F.Paste" "F.Mask") (tstamp 93f68a9b-4578-4814-8229-0492975464ad))
  (pad "6" smd circle (at -5.85 0.65) (size 0.15 0.15) (layers "F.Cu" "F.Paste" "F.Mask") (tstamp bfc52e7b-84b2-4a3b-9307-31cfbe046571))
  (pad "7" smd circle (at -5.85 1.95) (size 0.15 0.15) (layers "F.Cu" "F.Paste" "F.Mask") (tstamp 15e05069-8dd7-47b6-ba88-84051d435d26))
  (pad "8" smd circle (at -5.85 3.25) (size 0.15 0.15) (layers "F.Cu" "F.Paste" "F.Mask") (tstamp 84015ff1-ccba-47df-9fe5-8bc6c29cecd3))
  (pad "9" smd circle (at -5.85 4.55) (size 0.15 0.15) (layers "F.Cu" "F.Paste" "F.Mask") (tstamp 368db548-c9a6-44be-bcaf-240379a51f61))
  (pad "10" smd circle (at -5.85 5.85) (size 0.15 0.15) (layers "F.Cu" "F.Paste" "F.Mask") (tstamp 4bd585ca-63e9-4ab6-8042-2ef8c2366038))
  (pad "11" smd circle (at -4.55 -5.85) (size 0.15 0.15) (layers "F.Cu" "F.Paste" "F.Mask") (tstamp a380e688-111c-44c3-a577-200f8b59f19a))
  (pad "12" smd circle (at -4.55 -4.55) (size 0.15 0.15) (layers "F.Cu" "F.Paste" "F.Mask") (tstamp 682e1017-e944-40c7-9a9f-dc3b4d962e55))
  (pad "13" smd circle (at -4.55 -3.25) (size 0.15 0.15) (layers "F.Cu" "F.Paste" "F.Mask") (tstamp e835ca28-aed4-49f0-b255-b75421ae5605))
  (pad "14" smd circle (at -4.55 -1.95) (size 0.15 0.15) (layers "F.Cu" "F.Paste" "F.Mask") (tstamp 415ff779-36d4-4d1d-8550-dc8c2dda053e))
  (pad "15" smd circle (at -4.55 -0.65) (size 0.15 0.15) (layers "F.Cu" "F.Paste" "F.Mask") (tstamp 46009822-8418-4639-939e-e2b2847139f9))
  (pad "16" smd circle (at -4.55 0.65) (size 0.15 0.15) (layers "F.Cu" "F.Paste" "F.Mask") (tstamp 61deb906-d50b-4315-9cef-5f86944e884a))
  (pad "17" smd circle (at -4.55 1.95) (size 0.15 0.15) (layers "F.Cu" "F.Paste" "F.Mask") (tstamp df68279c-c81c-4e7c-9c88-78cbcc024e18))
  (pad "18" smd circle (at -4.55 3.25) (size 0.15 0.15) (layers "F.Cu" "F.Paste" "F.Mask") (tstamp 5cbcc34d-b798-4753-a50f-5edce8a5f6e6))
  (pad "19" smd circle (at -4.55 4.55) (size 0.15 0.15) (layers "F.Cu" "F.Paste" "F.Mask") (tstamp 253308b7-7b9a-4b3f-a5a3-e045757bbd8c))
  (pad "20" smd circle (at -4.55 5.85) (size 0.15 0.15) (layers "F.Cu" "F.Paste" "F.Mask") (tstamp 100cff23-7332-46d2-b2e6-beccc1847c4f))
  (pad "21" smd circle (at -3.25 -5.85) (size 0.15 0.15) (layers "F.Cu" "F.Paste" "F.Mask") (tstamp 9a4b0026-5755-4733-abcf-49dd3faf6978))
  (pad "22" smd circle (at -3.25 -4.55) (size 0.15 0.15) (layers "F.Cu" "F.Paste" "F.Mask") (tstamp c2772d2a-70f4-4f2d-b39f-53e701b65073))
  (pad "23" smd circle (at -3.25 -3.25) (size 0.15 0.15) (layers "F.Cu" "F.Paste" "F.Mask") (tstamp 1e088b0e-1ee8-40ec-8c8e-2d058bb866e4))
  (pad "24" smd circle (at -3.25 -1.95) (size 0.15 0.15) (layers "F.Cu" "F.Paste" "F.Mask") (tstamp 13a4926e-711f-487b-af5e-6fde7720c321))
  (pad "25" smd circle (at -3.25 -0.65) (size 0.15 0.15) (layers "F.Cu" "F.Paste" "F.Mask") (tstamp 4ed1dc95-3f43-4601-a9a8-f609c2e88e23))
  (pad "26" smd circle (at -3.25 0.65) (size 0.15 0.15) (layers "F.Cu" "F.Paste" "F.Mask") (tstamp 8c25a196-1646-4b07-b256-11e0e6a2aabb))
  (pad "27" smd circle (at -3.25 1.95) (size 0.15 0.15) (layers "F.Cu" "F.Paste" "F.Mask") (tstamp 1cdc8152-7e06-45f0-9fe7-4110c4281644))
  (pad "28" smd circle (at -3.25 3.25) (size 0.15 0.15) (layers "F.Cu" "F.Paste" "F.Mask") (tstamp 0946fc8b-22ff-41a3-b3fa-27c68ae1bd1b))
  (pad "29" smd circle (at -3.25 4.55) (size 0.15 0.15) (layers "F.Cu" "F.Paste" "F.Mask") (tstamp 17416547-8384-4a0c-af2f-f0a7c336315e))
  (pad "30" smd circle (at -3.25 5.85) (size 0.15 0.15) (layers "F.Cu" "F.Paste" "F.Mask") (tstamp 443bc8ec-8c6b-4dfd-a99d-50c33078d170))
  (pad "31" smd circle (at -1.95 -5.85) (size 0.15 0.15) (layers "F.Cu" "F.Paste" "F.Mask") (tstamp f1bae60e-8e65-41c0-854e-29bd8228b12b))
  (pad "32" smd circle (at -1.95 -4.55) (size 0.15 0.15) (layers "F.Cu" "F.Paste" "F.Mask") (tstamp 6e6bc94b-98ee-4a29-862f-9c89b69988b1))
  (pad "33" smd circle (at -1.95 -3.25) (size 0.15 0.15) (layers "F.Cu" "F.Paste" "F.Mask") (tstamp 33c565dc-2a55-4b8b-a717-dc1462189ebf))
  (pad "34" smd circle (at -1.95 -1.95) (size 0.15 0.15) (layers "F.Cu" "F.Paste" "F.Mask") (tstamp 21d3f9ab-c661-4d5f-ac59-d026c6bc1322))
  (pad "35" smd circle (at -1.95 -0.65) (size 0.15 0.15) (layers "F.Cu" "F.Paste" "F.Mask") (tstamp 12787651-ca04-4013-9511-09377a0bb9e4))
  (pad "36" smd circle (at -1.95 0.65) (size 0.15 0.15) (layers "F.Cu" "F.Paste" "F.Mask") (tstamp 9e2bd226-4597-4af5-b2bf-068c27707c21))
  (pad "37" smd circle (at -1.95 1.95) (size 0.15 0.15) (layers "F.Cu" "F.Paste" "F.Mask") (tstamp 15224912-43a4-48cf-a3b5-ccc58682de15))
  (pad "38" smd circle (at -1.95 3.25) (size 0.15 0.15) (layers "F.Cu" "F.Paste" "F.Mask") (tstamp db8181ad-d89b-46fa-af71-4120d2755b9d))
  (pad "39" smd circle (at -1.95 4.55) (size 0.15 0.15) (layers "F.Cu" "F.Paste" "F.Mask") (tstamp eab0ad08-b17b-47e3-8d76-83582c783925))
  (pad "40" smd circle (at -1.95 5.85) (size 0.15 0.15) (layers "F.Cu" "F.Paste" "F.Mask") (tstamp 1f3cf8c9-cf48-4e0b-bcb7-1edef5e73463))
  (pad "41" smd circle (at -0.65 -5.85) (size 0.15 0.15) (layers "F.Cu" "F.Paste" "F.Mask") (tstamp 2f208781-e96e-4682-934c-cd6916508dd5))
  (pad "42" smd circle (at -0.65 -4.55) (size 0.15 0.15) (layers "F.Cu" "F.Paste" "F.Mask") (tstamp f8fddb06-7015-481f-b68e-159a23b88a7e))
  (pad "43" smd circle (at -0.65 -3.25) (size 0.15 0.15) (layers "F.Cu" "F.Paste" "F.Mask") (tstamp 114b4258-629f-44bf-86dc-cc3be714c5e2))
  (pad "44" smd circle (at -0.65 -1.95) (size 0.15 0.15) (layers "F.Cu" "F.Paste" "F.Mask") (tstamp 239b6fde-4858-4ffb-9471-5e5fe7e26d17))
  (pad "45" smd circle (at -0.65 -0.65) (size 0.15 0.15) (layers "F.Cu" "F.Paste" "F.Mask") (tstamp 77d4621f-336f-470b-bcbc-237d9b18ea3a))
  (pad "46" smd circle (at -0.65 0.65) (size 0.15 0.15) (layers "F.Cu" "F.Paste" "F.Mask") (tstamp bbb3d825-2925-4fe2-84a1-add7910ba8fd))
  (pad "47" smd circle (at -0.65 1.95) (size 0.15 0.15) (layers "F.Cu" "F.Paste" "F.Mask") (tstamp 9d7b0786-7f53-42e6-a631-36967a15750f))
  (pad "48" smd circle (at -0.65 3.25) (size 0.15 0.15) (layers "F.Cu" "F.Paste" "F.Mask") (tstamp b344a1a7-fcd4-4b3c-9fbe-39de08dc8202))
  (pad "49" smd circle (at -0.65 4.55) (size 0.15 0.15) (layers "F.Cu" "F.Paste" "F.Mask") (tstamp 4b1f7c2b-9030-41db-85b9-3c705f0f2475))
  (pad "50" smd circle (at -0.65 5.85) (size 0.15 0.15) (layers "F.Cu" "F.Paste" "F.Mask") (tstamp 3076c4e0-03c1-4859-855c-4d5b6b9ec632))
  (pad "51" smd circle (at 0.65 -5.85) (size 0.15 0.15) (layers "F.Cu" "F.Paste" "F.Mask") (tstamp 23acb2fa-a3a0-42c4-8a75-6a6bbc03200f))
  (pad "52" smd circle (at 0.65 -4.55) (size 0.15 0.15) (layers "F.Cu" "F.Paste" "F.Mask") (tstamp b9a84a5d-df0b-42fa-bb61-dc2acffef34f))
  (pad "53" smd circle (at 0.65 -3.25) (size 0.15 0.15) (layers "F.Cu" "F.Paste" "F.Mask") (tstamp 9da42750-06b5-405c-a187-3354715ea3a2))
  (pad "54" smd circle (at 0.65 -1.95) (size 0.15 0.15) (layers "F.Cu" "F.Paste" "F.Mask") (tstamp fca88251-720e-4326-a560-10efc74908d9))
  (pad "55" smd circle (at 0.65 -0.65) (size 0.15 0.15) (layers "F.Cu" "F.Paste" "F.Mask") (tstamp 03ae6dce-fb83-47ad-996e-8926cd8b9b8a))
  (pad "56" smd circle (at 0.65 0.65) (size 0.15 0.15) (layers "F.Cu" "F.Paste" "F.Mask") (tstamp 4ff3056d-4bc5-445c-a8c5-364bd5b033e9))
  (pad "57" smd circle (at 0.65 1.95) (size 0.15 0.15) (layers "F.Cu" "F.Paste" "F.Mask") (tstamp 78f9174a-17e0-4c76-b291-457f85556a21))
  (pad "58" smd circle (at 0.65 3.25) (size 0.15 0.15) (layers "F.Cu" "F.Paste" "F.Mask") (tstamp 9d107208-f134-4260-b2c5-8ec9119303f0))
  (pad "59" smd circle (at 0.65 4.55) (size 0.15 0.15) (layers "F.Cu" "F.Paste" "F.Mask") (tstamp d8697488-f19f-41c8-b91a-442c9983f615))
  (pad "60" smd circle (at 0.65 5.85) (size 0.15 0.15) (layers "F.Cu" "F.Paste" "F.Mask") (tstamp b8ff1a87-aa1e-44d9-9d78-83933d5bc029))
  (pad "61" smd circle (at 1.95 -5.85) (size 0.15 0.15) (layers "F.Cu" "F.Paste" "F.Mask") (tstamp 15c91958-0998-438d-b299-c0b0e81a496f))
  (pad "62" smd circle (at 1.95 -4.55) (size 0.15 0.15) (layers "F.Cu" "F.Paste" "F.Mask") (tstamp 896b27a2-5ff1-48fb-90bf-1c5ae1db5528))
  (pad "63" smd circle (at 1.95 -3.25) (size 0.15 0.15) (layers "F.Cu" "F.Paste" "F.Mask") (tstamp 15752267-a4ac-4d81-ac78-6efe88db232d))
  (pad "64" smd circle (at 1.95 -1.95) (size 0.15 0.15) (layers "F.Cu" "F.Paste" "F.Mask") (tstamp 89aa2067-1da1-44a6-a578-2b0284c7fa90))
  (pad "65" smd circle (at 1.95 -0.65) (size 0.15 0.15) (layers "F.Cu" "F.Paste" "F.Mask") (tstamp 99c02827-eb96-4a92-a924-e49b46713843))
  (pad "66" smd circle (at 1.95 0.65) (size 0.15 0.15) (layers "F.Cu" "F.Paste" "F.Mask") (tstamp a9c2fb5a-0a48-4abb-9e05-afbe813561df))
  (pad "67" smd circle (at 1.95 1.95) (size 0.15 0.15) (layers "F.Cu" "F.Paste" "F.Mask") (tstamp b162336c-1d18-4e60-836d-bb1988b42efb))
  (pad "68" smd circle (at 1.95 3.25) (size 0.15 0.15) (layers "F.Cu" "F.Paste" "F.Mask") (tstamp bcacf9a7-9362-4a30-a85b-b86436001d0d))
  (pad "69" smd circle (at 1.95 4.55) (size 0.15 0.15) (layers "F.Cu" "F.Paste" "F.Mask") (tstamp bb753b73-44aa-4d68-ae06-310b860ba3c8))
  (pad "70" smd circle (at 1.95 5.85) (size 0.15 0.15) (layers "F.Cu" "F.Paste" "F.Mask") (tstamp 952f4b32-0937-49bc-8813-f5a8623a0fa9))
  (pad "71" smd circle (at 3.25 -5.85) (size 0.15 0.15) (layers "F.Cu" "F.Paste" "F.Mask") (tstamp 43360165-929d-4460-ba8f-a3973a637f51))
  (pad "72" smd circle (at 3.25 -4.55) (size 0.15 0.15) (layers "F.Cu" "F.Paste" "F.Mask") (tstamp a2029f12-0b1c-4ef9-938d-8942d7755a04))
  (pad "73" smd circle (at 3.25 -3.25) (size 0.15 0.15) (layers "F.Cu" "F.Paste" "F.Mask") (tstamp 88fed1d7-f781-4118-a052-5b83179ad123))
  (pad "74" smd circle (at 3.25 -1.95) (size 0.15 0.15) (layers "F.Cu" "F.Paste" "F.Mask") (tstamp 324559df-a5f2-484a-bd69-a67130bb7dab))
  (pad "75" smd circle (at 3.25 -0.65) (size 0.15 0.15) (layers "F.Cu" "F.Paste" "F.Mask") (tstamp 039cadb9-85d4-4707-becd-622f248fe17e))
  (pad "76" smd circle (at 3.25 0.65) (size 0.15 0.15) (layers "F.Cu" "F.Paste" "F.Mask") (tstamp 23f4bb84-8ef8-489e-98c2-256f63032775))
  (pad "77" smd circle (at 3.25 1.95) (size 0.15 0.15) (layers "F.Cu" "F.Paste" "F.Mask") (tstamp a2fa9ef2-6dbd-4097-be9b-fb42a401cc5d))
  (pad "78" smd circle (at 3.25 3.25) (size 0.15 0.15) (layers "F.Cu" "F.Paste" "F.Mask") (tstamp 933ae921-2f3d-41ca-811f-7438e944761f))
  (pad "79" smd circle (at 3.25 4.55) (size 0.15 0.15) (layers "F.Cu" "F.Paste" "F.Mask") (tstamp 312e9243-470d-4b20-83b0-215739ade80e))
  (pad "80" smd circle (at 3.25 5.85) (size 0.15 0.15) (layers "F.Cu" "F.Paste" "F.Mask") (tstamp 096196ab-b917-4234-a84e-6d2a860caff5))
  (pad "81" smd circle (at 4.55 -5.85) (size 0.15 0.15) (layers "F.Cu" "F.Paste" "F.Mask") (tstamp 3aeac7f4-9a68-4b37-8aef-09daefc34a87))
  (pad "82" smd circle (at 4.55 -4.55) (size 0.15 0.15) (layers "F.Cu" "F.Paste" "F.Mask") (tstamp 3b0eebc6-e46b-48d1-b8e3-ecc126a2542f))
  (pad "83" smd circle (at 4.55 -3.25) (size 0.15 0.15) (layers "F.Cu" "F.Paste" "F.Mask") (tstamp 1d447f9e-5c01-43e5-b684-6c0409f54c27))
  (pad "84" smd circle (at 4.55 -1.95) (size 0.15 0.15) (layers "F.Cu" "F.Paste" "F.Mask") (tstamp 9149215c-677c-4d3b-8c5c-210ba6d751d6))
  (pad "85" smd circle (at 4.55 -0.65) (size 0.15 0.15) (layers "F.Cu" "F.Paste" "F.Mask") (tstamp 0f99540e-8e32-4a4b-822e-40869e08279d))
  (pad "86" smd circle (at 4.55 0.65) (size 0.15 0.15) (layers "F.Cu" "F.Paste" "F.Mask") (tstamp 453ab6aa-cfb5-4d29-9b0b-052b3a915974))
  (pad "87" smd circle (at 4.55 1.95) (size 0.15 0.15) (layers "F.Cu" "F.Paste" "F.Mask") (tstamp 275ac0e9-9c21-47e7-9f09-05e236e45ae2))
  (pad "88" smd circle (at 4.55 3.25) (size 0.15 0.15) (layers "F.Cu" "F.Paste" "F.Mask") (tstamp 0f0e2d16-c257-41f1-a2c1-7761aed44afa))
  (pad "89" smd circle (at 4.55 4.55) (size 0.15 0.15) (layers "F.Cu" "F.Paste" "F.Mask") (tstamp 67d0dee0-7648-427f-b0b8-809687450a84))
  (pad "90" smd circle (at 4.55 5.85) (size 0.15 0.15) (layers "F.Cu" "F.Paste" "F.Mask") (tstamp 7d63343e-d141-4747-aed0-0bca74eaa4eb))
  (pad "91" smd circle (at 5.85 -5.85) (size 0.15 0.15) (layers "F.Cu" "F.Paste" "F.Mask") (tstamp 8fc0ea1f-4bfc-4f1c-a189-3466787eb75d))
  (pad "92" smd circle (at 5.85 -4.55) (size 0.15 0.15) (layers "F.Cu" "F.Paste" "F.Mask") (tstamp 64e2e2f5-0b8f-4e5d-bd2f-1b7b0ee30af6))
  (pad "93" smd circle (at 5.85 -3.25) (size 0.15 0.15) (layers "F.Cu" "F.Paste" "F.Mask") (tstamp 38c44cfc-95b7-4a1f-9581-d647cb7a71c0))
  (pad "94" smd circle (at 5.85 -1.95) (size 0.15 0.15) (layers "F.Cu" "F.Paste" "F.Mask") (tstamp 3dbd35ca-511c-4337-93f3-7f078f1c9bce))
  (pad "95" smd circle (at 5.85 -0.65) (size 0.15 0.15) (layers "F.Cu" "F.Paste" "F.Mask") (tstamp b53635bd-87f1-4327-afdb-0c6d07526724))
  (pad "96" smd circle (at 5.85 0.65) (size 0.15 0.15) (layers "F.Cu" "F.Paste" "F.Mask") (tstamp b0d3e79e-6fd0-4126-af55-4925c1e2d538))
  (pad "97" smd circle (at 5.85 1.95) (size 0.15 0.15) (layers "F.Cu" "F.Paste" "F.Mask") (tstamp 16467d3f-55d0-4d8a-aa05-377b5a2f3c28))
  (pad "98" smd circle (at 5.85 3.25) (size 0.15 0.15) (layers "F.Cu" "F.Paste" "F.Mask") (tstamp 90b61112-c2ff-4c81-964b-491ac808f94d))
  (pad "99" smd circle (at 5.85 4.55) (size 0.15 0.15) (layers "F.Cu" "F.Paste" "F.Mask") (tstamp ee18d56f-f868-47d5-be1d-eb411bbcf7c8))
  (pad "100" smd circle (at 5.85 5.85) (size 0.15 0.15) (layers "F.Cu" "F.Paste" "F.Mask") (tstamp a82e0df6-45ab-4be0-bb7b-385f91d96dd4))
)
