(footprint "ETROC 5x5 0.4 Pads" (version 20211014) (generator pcbnew)
  (layer "F.Cu")
  (tedit 0)
  (attr smd)
  (fp_text reference "REF**" (at 0 -4.2 unlocked) (layer "F.SilkS")
    (effects (font (size 1 1) (thickness 0.15)))
    (tstamp 0d07883a-b43f-4bbe-8ee5-72c77b3cc647)
  )
  (fp_text value "ETROC 5x5 0.4 Pads" (at 0 4.4 unlocked) (layer "F.Fab")
    (effects (font (size 1 1) (thickness 0.15)))
    (tstamp 07294c5e-c8a3-4826-a87d-918f92823199)
  )
  (fp_text user "${REFERENCE}" (at 0 5.7 unlocked) (layer "F.Fab")
    (effects (font (size 1 1) (thickness 0.15)))
    (tstamp e72b39d5-2f53-4a38-bcef-b292f6bb2b28)
  )
  (fp_rect (start -3.55 -3.55) (end 3.55 3.55) (layer "F.SilkS") (width 0.12) (fill none) (tstamp 0377ccc5-006f-42c0-9263-e559b8c3b07b))
  (fp_rect (start -2.925 -2.925) (end -2.275 -2.275) (layer "F.SilkS") (width 0.12) (fill none) (tstamp a2d5ebbd-8f61-493f-adfa-640e3f0b5cab))
  (fp_line (start -3.25 0.65) (end -3.25 1.95) (layer "Dwgs.User") (width 0.12) (tstamp 0a5f2c0e-38b1-4a9f-8e76-304a3681fa9d))
  (fp_line (start 0.65 3.25) (end 1.95 3.25) (layer "Dwgs.User") (width 0.12) (tstamp 2d47e797-f241-4538-b842-6de0b45bb3d2))
  (fp_line (start 3.25 -0.65) (end 3.25 0.65) (layer "Dwgs.User") (width 0.12) (tstamp 2ded3b2f-2bcd-4461-ac4e-20c09e43339c))
  (fp_line (start -3.25 -0.65) (end 3.25 -0.65) (layer "Dwgs.User") (width 0.12) (tstamp 4603921f-05d1-4a3a-b041-5080d0684f37))
  (fp_line (start 3.25 -1.95) (end -3.25 -1.95) (layer "Dwgs.User") (width 0.12) (tstamp 65626c76-4cc4-4378-b928-1bb00fa6922b))
  (fp_line (start 3.25 0.65) (end -3.25 0.65) (layer "Dwgs.User") (width 0.12) (tstamp 68b35e93-f3dc-4a5c-a2c5-006a1842f618))
  (fp_line (start -1.95 -3.25) (end -1.95 3.25) (layer "Dwgs.User") (width 0.12) (tstamp 68dd9848-c9bc-4c2e-b4c2-6c544cd5fc66))
  (fp_line (start 0.65 -3.25) (end 0.65 3.25) (layer "Dwgs.User") (width 0.12) (tstamp 7674a098-04bf-4679-b3a5-068b53430ae2))
  (fp_line (start -0.65 -3.25) (end 0.65 -3.25) (layer "Dwgs.User") (width 0.12) (tstamp 927dc5cd-26bd-41b0-a14e-65753ef75c59))
  (fp_line (start -1.95 3.25) (end -0.65 3.25) (layer "Dwgs.User") (width 0.12) (tstamp a73342d8-2c22-42db-88a2-ff6a0e367916))
  (fp_line (start 1.95 3.25) (end 1.95 -3.25) (layer "Dwgs.User") (width 0.12) (tstamp ca5a025f-8d39-4c75-b5af-3f416719698c))
  (fp_line (start -3.25 -1.95) (end -3.25 -0.65) (layer "Dwgs.User") (width 0.12) (tstamp cd4e083d-81c4-4b0e-9d7b-d901a71707ab))
  (fp_line (start -0.65 3.25) (end -0.65 -3.25) (layer "Dwgs.User") (width 0.12) (tstamp e8520e6d-45e3-4b00-8b6b-ae9c40569bc7))
  (fp_line (start -3.25 1.95) (end 3.25 1.95) (layer "Dwgs.User") (width 0.12) (tstamp e8a34d40-3fd1-471f-aeab-f72e11ed5b62))
  (fp_rect (start -3.25 -3.25) (end 3.25 3.25) (layer "Dwgs.User") (width 0.12) (fill none) (tstamp 8f9e447b-552b-4107-839e-054c1a2b99bc))
  (fp_rect (start -3.55 -3.55) (end 3.55 3.55) (layer "F.CrtYd") (width 0.05) (fill none) (tstamp 24f44005-1a1b-4e44-af67-8b399e781371))
  (pad "1" smd roundrect (at -2.6 -2.6) (size 0.4 0.4) (layers "F.Cu" "F.Paste" "F.Mask") (roundrect_rratio 0.25) (tstamp 73bc7a0d-2391-411a-9f24-3ade74e8712c))
  (pad "2" smd roundrect (at -2.6 -1.3) (size 0.4 0.4) (layers "F.Cu" "F.Paste" "F.Mask") (roundrect_rratio 0.25) (tstamp 75d39210-911c-4a59-b756-1983b3041c9a))
  (pad "3" smd roundrect (at -2.6 0) (size 0.4 0.4) (layers "F.Cu" "F.Paste" "F.Mask") (roundrect_rratio 0.25) (tstamp fc2f8b02-69f0-4d3a-ad2c-c4a3d82c05db))
  (pad "4" smd roundrect (at -2.6 1.3) (size 0.4 0.4) (layers "F.Cu" "F.Paste" "F.Mask") (roundrect_rratio 0.25) (tstamp 23487c4a-ba54-4692-84db-67f13e37628f))
  (pad "5" smd roundrect (at -2.6 2.6) (size 0.4 0.4) (layers "F.Cu" "F.Paste" "F.Mask") (roundrect_rratio 0.25) (tstamp d1860def-5beb-476b-87ac-91b762a308af))
  (pad "6" smd roundrect (at -1.3 -2.6) (size 0.4 0.4) (layers "F.Cu" "F.Paste" "F.Mask") (roundrect_rratio 0.25) (tstamp e44073c9-817b-41ac-8b93-1d2fdb294ae7))
  (pad "7" smd roundrect (at -1.3 -1.3) (size 0.4 0.4) (layers "F.Cu" "F.Paste" "F.Mask") (roundrect_rratio 0.25) (tstamp 21b32c9e-fedc-4b56-9dd5-524c6da95892))
  (pad "8" smd roundrect (at -1.3 0) (size 0.4 0.4) (layers "F.Cu" "F.Paste" "F.Mask") (roundrect_rratio 0.25) (tstamp 6c51e3a7-e0be-4944-bf40-734269cf8fab))
  (pad "9" smd roundrect (at -1.3 1.3) (size 0.4 0.4) (layers "F.Cu" "F.Paste" "F.Mask") (roundrect_rratio 0.25) (tstamp 1c68ff19-7b22-4ebb-8a43-ef842e9c9fb0))
  (pad "10" smd roundrect (at -1.3 2.6) (size 0.4 0.4) (layers "F.Cu" "F.Paste" "F.Mask") (roundrect_rratio 0.25) (tstamp bc752369-de20-48fe-b21f-d984e28189ea))
  (pad "11" smd roundrect (at 0 -2.6) (size 0.4 0.4) (layers "F.Cu" "F.Paste" "F.Mask") (roundrect_rratio 0.25) (tstamp 1c135af2-b4c1-450e-973d-b5d78dd2cf2e))
  (pad "12" smd roundrect (at 0 -1.3) (size 0.4 0.4) (layers "F.Cu" "F.Paste" "F.Mask") (roundrect_rratio 0.25) (tstamp 9f3540b7-4f24-483e-b59c-10c6f2cea7ca))
  (pad "13" smd roundrect (at 0 0) (size 0.4 0.4) (layers "F.Cu" "F.Paste" "F.Mask") (roundrect_rratio 0.25) (tstamp 17e68c98-9f6a-4c28-af9d-9857203f344f))
  (pad "14" smd roundrect (at 0 1.3) (size 0.4 0.4) (layers "F.Cu" "F.Paste" "F.Mask") (roundrect_rratio 0.25) (tstamp e32b3966-74d8-4a15-96a3-d50564906785))
  (pad "15" smd roundrect (at 0 2.6) (size 0.4 0.4) (layers "F.Cu" "F.Paste" "F.Mask") (roundrect_rratio 0.25) (tstamp db85911c-8ab2-4841-be61-eeb975874cdc))
  (pad "16" smd roundrect (at 1.3 -2.6) (size 0.4 0.4) (layers "F.Cu" "F.Paste" "F.Mask") (roundrect_rratio 0.25) (tstamp 7f6c4cb5-9311-461e-97ad-af9573ea04d8))
  (pad "17" smd roundrect (at 1.3 -1.3) (size 0.4 0.4) (layers "F.Cu" "F.Paste" "F.Mask") (roundrect_rratio 0.25) (tstamp 9a3920f6-46ab-44ff-8afd-24fb712831f4))
  (pad "18" smd roundrect (at 1.3 0) (size 0.4 0.4) (layers "F.Cu" "F.Paste" "F.Mask") (roundrect_rratio 0.25) (tstamp 7326d3de-5e2b-4f2b-abf1-c9e938dfc492))
  (pad "19" smd roundrect (at 1.3 1.3) (size 0.4 0.4) (layers "F.Cu" "F.Paste" "F.Mask") (roundrect_rratio 0.25) (tstamp c3f0aee0-4e14-435e-b619-87b4d621c59c))
  (pad "20" smd roundrect (at 1.3 2.6) (size 0.4 0.4) (layers "F.Cu" "F.Paste" "F.Mask") (roundrect_rratio 0.25) (tstamp dcdd6923-89c4-4896-9a0c-30d1b90d72a1))
  (pad "21" smd roundrect (at 2.6 -2.6) (size 0.4 0.4) (layers "F.Cu" "F.Paste" "F.Mask") (roundrect_rratio 0.25) (tstamp 1d6b89cb-6ec4-4155-8c4d-616300eefa1a))
  (pad "22" smd roundrect (at 2.6 -1.3) (size 0.4 0.4) (layers "F.Cu" "F.Paste" "F.Mask") (roundrect_rratio 0.25) (tstamp fc0f3d70-cdb9-42e0-94d9-3c859e10dbb9))
  (pad "23" smd roundrect (at 2.6 0) (size 0.4 0.4) (layers "F.Cu" "F.Paste" "F.Mask") (roundrect_rratio 0.25) (tstamp a3c0ab50-c8c1-4beb-b11d-0a627fe047fe))
  (pad "24" smd roundrect (at 2.6 1.3) (size 0.4 0.4) (layers "F.Cu" "F.Paste" "F.Mask") (roundrect_rratio 0.25) (tstamp c7b4b382-960a-4ddd-b42a-2c900e2a7e33))
  (pad "25" smd roundrect (at 2.6 2.6) (size 0.4 0.4) (layers "F.Cu" "F.Paste" "F.Mask") (roundrect_rratio 0.25) (tstamp 16190c44-2cc8-4f88-840d-ad028e3d901c))
)
