(footprint "ETROC 6x6 0.4 Pads" (version 20211014) (generator pcbnew)
  (layer "F.Cu")
  (tedit 0)
  (attr smd)
  (fp_text reference "REF**" (at 0 -4.9 unlocked) (layer "F.SilkS")
    (effects (font (size 1 1) (thickness 0.15)))
    (tstamp 2c164c36-5c39-4839-ac75-ed58753faf24)
  )
  (fp_text value "ETROC 6x6 0.4 Pads" (at 0 5.1 unlocked) (layer "F.Fab")
    (effects (font (size 1 1) (thickness 0.15)))
    (tstamp fa950633-0088-4897-97a4-cb4a5121155d)
  )
  (fp_text user "${REFERENCE}" (at 0 6.4 unlocked) (layer "F.Fab")
    (effects (font (size 1 1) (thickness 0.15)))
    (tstamp 7d2d97ac-2879-4d33-9733-f0d24594fb51)
  )
  (fp_rect (start -3.575 -3.575) (end -2.925 -2.925) (layer "F.SilkS") (width 0.12) (fill none) (tstamp 1c8022fa-7c57-4dfa-8e3e-b3df55a6ae16))
  (fp_rect (start -4.2 -4.2) (end 4.2 4.2) (layer "F.SilkS") (width 0.12) (fill none) (tstamp c4f09dcd-39de-4425-a81a-3873e5151d15))
  (fp_line (start 3.9 -2.6) (end -3.9 -2.6) (layer "Dwgs.User") (width 0.12) (tstamp 11cb6b50-9955-4525-8f59-6bb47a6d4218))
  (fp_line (start 1.3 3.9) (end 1.3 -3.9) (layer "Dwgs.User") (width 0.12) (tstamp 1e84e8d2-a0db-4869-a4de-fb771c0b7925))
  (fp_line (start -3.9 1.3) (end 3.9 1.3) (layer "Dwgs.User") (width 0.12) (tstamp 2f9956db-83d5-4208-a3f6-3bef1310963f))
  (fp_line (start 2.6 -3.9) (end 2.6 3.9) (layer "Dwgs.User") (width 0.12) (tstamp 5a55c5e6-3890-49f2-a8f1-126e6c058ad6))
  (fp_line (start 3.9 2.6) (end -3.9 2.6) (layer "Dwgs.User") (width 0.12) (tstamp 75ddce88-2ac1-4cd7-938a-d817161c6900))
  (fp_line (start 0 -3.9) (end 0 3.9) (layer "Dwgs.User") (width 0.12) (tstamp 84571c89-6ef4-412c-b7ae-450502701838))
  (fp_line (start -3.9 -1.3) (end 3.9 -1.3) (layer "Dwgs.User") (width 0.12) (tstamp 8fafb49a-1389-46c0-95ba-d21669f01a30))
  (fp_line (start -2.6 -3.9) (end -2.6 3.9) (layer "Dwgs.User") (width 0.12) (tstamp e6de38ab-2140-4bbc-9ace-cafcae24d6b3))
  (fp_line (start 3.9 0) (end -3.9 0) (layer "Dwgs.User") (width 0.12) (tstamp f6ea1af1-9001-4214-a146-24ae2e4ba61b))
  (fp_line (start -1.3 3.9) (end -1.3 -3.9) (layer "Dwgs.User") (width 0.12) (tstamp fdbb6002-e1c6-40bf-8311-4a7f4e8bf00f))
  (fp_rect (start -3.9 -3.9) (end 3.9 3.9) (layer "Dwgs.User") (width 0.12) (fill none) (tstamp a4f530f3-edec-4474-8801-5cc42f9da220))
  (fp_rect (start -4.2 -4.2) (end 4.2 4.2) (layer "F.CrtYd") (width 0.05) (fill none) (tstamp 1f89c45b-3981-4cc9-908f-c280cc231f0f))
  (pad "1" smd roundrect (at -3.25 -3.25) (size 0.4 0.4) (layers "F.Cu" "F.Paste" "F.Mask") (roundrect_rratio 0.25) (tstamp 42fc075e-21f8-44e6-b588-8e98340bd021))
  (pad "2" smd roundrect (at -3.25 -1.95) (size 0.4 0.4) (layers "F.Cu" "F.Paste" "F.Mask") (roundrect_rratio 0.25) (tstamp f8351c00-8b3b-4514-b9d0-a36ce5604dcd))
  (pad "3" smd roundrect (at -3.25 -0.65) (size 0.4 0.4) (layers "F.Cu" "F.Paste" "F.Mask") (roundrect_rratio 0.25) (tstamp b148488f-561a-4ed0-8f59-74665328a752))
  (pad "4" smd roundrect (at -3.25 0.65) (size 0.4 0.4) (layers "F.Cu" "F.Paste" "F.Mask") (roundrect_rratio 0.25) (tstamp 4e54ac1f-ee7f-4678-b805-223386b01efd))
  (pad "5" smd roundrect (at -3.25 1.95) (size 0.4 0.4) (layers "F.Cu" "F.Paste" "F.Mask") (roundrect_rratio 0.25) (tstamp 9d222fe5-c4a2-45f3-9528-b97f8074678d))
  (pad "6" smd roundrect (at -3.25 3.25) (size 0.4 0.4) (layers "F.Cu" "F.Paste" "F.Mask") (roundrect_rratio 0.25) (tstamp 9d53150c-c994-4675-937a-0f58fc3ad159))
  (pad "7" smd roundrect (at -1.95 -3.25) (size 0.4 0.4) (layers "F.Cu" "F.Paste" "F.Mask") (roundrect_rratio 0.25) (tstamp 95ba7208-4bf2-4d7f-bfbe-e5e9287c0830))
  (pad "8" smd roundrect (at -1.95 -1.95) (size 0.4 0.4) (layers "F.Cu" "F.Paste" "F.Mask") (roundrect_rratio 0.25) (tstamp 58a54c24-feeb-493f-9edf-332b91be1aa6))
  (pad "9" smd roundrect (at -1.95 -0.65) (size 0.4 0.4) (layers "F.Cu" "F.Paste" "F.Mask") (roundrect_rratio 0.25) (tstamp d60fe3cc-49d3-4249-99ee-0ba3d447f534))
  (pad "10" smd roundrect (at -1.95 0.65) (size 0.4 0.4) (layers "F.Cu" "F.Paste" "F.Mask") (roundrect_rratio 0.25) (tstamp a97aa583-ca33-4fa8-9262-ae620cda0710))
  (pad "11" smd roundrect (at -1.95 1.95) (size 0.4 0.4) (layers "F.Cu" "F.Paste" "F.Mask") (roundrect_rratio 0.25) (tstamp ca703e05-645d-461c-b217-56ed108f1cd7))
  (pad "12" smd roundrect (at -1.95 3.25) (size 0.4 0.4) (layers "F.Cu" "F.Paste" "F.Mask") (roundrect_rratio 0.25) (tstamp 3bfd7456-9cc9-4b88-9d69-fc8f3252b8ed))
  (pad "13" smd roundrect (at -0.65 -3.25) (size 0.4 0.4) (layers "F.Cu" "F.Paste" "F.Mask") (roundrect_rratio 0.25) (tstamp 9166d3dc-b820-4e89-803f-355962f9f34a))
  (pad "14" smd roundrect (at -0.65 -1.95) (size 0.4 0.4) (layers "F.Cu" "F.Paste" "F.Mask") (roundrect_rratio 0.25) (tstamp 28439b4f-0162-409a-8b2d-7514aae4359e))
  (pad "15" smd roundrect (at -0.65 -0.65) (size 0.4 0.4) (layers "F.Cu" "F.Paste" "F.Mask") (roundrect_rratio 0.25) (tstamp 13c785ff-e054-42d5-b7e9-dddf0e5dd46d))
  (pad "16" smd roundrect (at -0.65 0.65) (size 0.4 0.4) (layers "F.Cu" "F.Paste" "F.Mask") (roundrect_rratio 0.25) (tstamp c3cbc23f-f1bc-4919-84fb-03a601a97805))
  (pad "17" smd roundrect (at -0.65 1.95) (size 0.4 0.4) (layers "F.Cu" "F.Paste" "F.Mask") (roundrect_rratio 0.25) (tstamp 5fd5d8aa-74ba-4f62-8a20-2bc352f5f38a))
  (pad "18" smd roundrect (at -0.65 3.25) (size 0.4 0.4) (layers "F.Cu" "F.Paste" "F.Mask") (roundrect_rratio 0.25) (tstamp cedbab53-80c9-4f50-85c1-f7dfde8dd212))
  (pad "19" smd roundrect (at 0.65 -3.25) (size 0.4 0.4) (layers "F.Cu" "F.Paste" "F.Mask") (roundrect_rratio 0.25) (tstamp 037fef4c-6d4c-48c4-93dc-49f63be58775))
  (pad "20" smd roundrect (at 0.65 -1.95) (size 0.4 0.4) (layers "F.Cu" "F.Paste" "F.Mask") (roundrect_rratio 0.25) (tstamp 3093b508-6e0e-405b-93bf-5f1451c2e29e))
  (pad "21" smd roundrect (at 0.65 -0.65) (size 0.4 0.4) (layers "F.Cu" "F.Paste" "F.Mask") (roundrect_rratio 0.25) (tstamp bd59f614-81b5-4a01-b81a-53f037a27a58))
  (pad "22" smd roundrect (at 0.65 0.65) (size 0.4 0.4) (layers "F.Cu" "F.Paste" "F.Mask") (roundrect_rratio 0.25) (tstamp 54774061-ca8a-41fe-ba7f-9a86996d617f))
  (pad "23" smd roundrect (at 0.65 1.95) (size 0.4 0.4) (layers "F.Cu" "F.Paste" "F.Mask") (roundrect_rratio 0.25) (tstamp 96c23ad6-2b4c-4eb8-9fcd-42fa541c911c))
  (pad "24" smd roundrect (at 0.65 3.25) (size 0.4 0.4) (layers "F.Cu" "F.Paste" "F.Mask") (roundrect_rratio 0.25) (tstamp aa7f0cc7-91fd-45ea-9aab-d4da68a4bb5e))
  (pad "25" smd roundrect (at 1.95 -3.25) (size 0.4 0.4) (layers "F.Cu" "F.Paste" "F.Mask") (roundrect_rratio 0.25) (tstamp 839f8698-de8a-4c38-b564-42ac0e9706ed))
  (pad "26" smd roundrect (at 1.95 -1.95) (size 0.4 0.4) (layers "F.Cu" "F.Paste" "F.Mask") (roundrect_rratio 0.25) (tstamp 4e2f8874-e506-44f8-87c3-f610958bdf15))
  (pad "27" smd roundrect (at 1.95 -0.65) (size 0.4 0.4) (layers "F.Cu" "F.Paste" "F.Mask") (roundrect_rratio 0.25) (tstamp 02b2193d-b97a-4642-ba6f-d3f2ac9da8b5))
  (pad "28" smd roundrect (at 1.95 0.65) (size 0.4 0.4) (layers "F.Cu" "F.Paste" "F.Mask") (roundrect_rratio 0.25) (tstamp 59cf10a3-00e1-4b8f-a6ac-6a8420a174df))
  (pad "29" smd roundrect (at 1.95 1.95) (size 0.4 0.4) (layers "F.Cu" "F.Paste" "F.Mask") (roundrect_rratio 0.25) (tstamp a9676fd3-0ebc-49e2-bda9-62dcccc9c968))
  (pad "30" smd roundrect (at 1.95 3.25) (size 0.4 0.4) (layers "F.Cu" "F.Paste" "F.Mask") (roundrect_rratio 0.25) (tstamp 81f1c99e-8939-455b-b462-6845bcf8c183))
  (pad "31" smd roundrect (at 3.25 -3.25) (size 0.4 0.4) (layers "F.Cu" "F.Paste" "F.Mask") (roundrect_rratio 0.25) (tstamp b9f9159d-8cd7-4542-b4e2-6a3ff5cc7e4d))
  (pad "32" smd roundrect (at 3.25 -1.95) (size 0.4 0.4) (layers "F.Cu" "F.Paste" "F.Mask") (roundrect_rratio 0.25) (tstamp 2198908d-2a05-4ab9-b2ac-d55a1ccf6000))
  (pad "33" smd roundrect (at 3.25 -0.65) (size 0.4 0.4) (layers "F.Cu" "F.Paste" "F.Mask") (roundrect_rratio 0.25) (tstamp 435cf7f7-a3c2-4099-b755-175ab8ce983b))
  (pad "34" smd roundrect (at 3.25 0.65) (size 0.4 0.4) (layers "F.Cu" "F.Paste" "F.Mask") (roundrect_rratio 0.25) (tstamp ec506602-022e-4605-b3e4-e847dd6dd9d7))
  (pad "35" smd roundrect (at 3.25 1.95) (size 0.4 0.4) (layers "F.Cu" "F.Paste" "F.Mask") (roundrect_rratio 0.25) (tstamp aeb73c07-f0e4-4427-817a-e038ebe6f668))
  (pad "36" smd roundrect (at 3.25 3.25) (size 0.4 0.4) (layers "F.Cu" "F.Paste" "F.Mask") (roundrect_rratio 0.25) (tstamp e43e8a03-bfd9-434f-bcf2-36afe2196c79))
)
