(footprint "ETROC 9x9 0.4 Pads" (version 20211014) (generator pcbnew)
  (layer "F.Cu")
  (tedit 0)
  (attr smd)
  (fp_text reference "REF**" (at 0 -6.8 unlocked) (layer "F.SilkS")
    (effects (font (size 1 1) (thickness 0.15)))
    (tstamp 7e919adc-495b-465d-8ff8-01b7a39dd8e0)
  )
  (fp_text value "ETROC 9x9 0.4 Pads" (at 0 7 unlocked) (layer "F.Fab")
    (effects (font (size 1 1) (thickness 0.15)))
    (tstamp 08c92490-378d-4519-bb12-6bf5b93d50a9)
  )
  (fp_text user "${REFERENCE}" (at 0 8.3 unlocked) (layer "F.Fab")
    (effects (font (size 1 1) (thickness 0.15)))
    (tstamp afa5e751-a0b3-4031-b5dc-64172f96ee06)
  )
  (fp_rect (start -6.15 -6.15) (end 6.15 6.15) (layer "F.SilkS") (width 0.12) (fill none) (tstamp 5d1832c4-9100-42af-8724-d8f142ba1017))
  (fp_rect (start -5.525 -5.525) (end -4.875 -4.875) (layer "F.SilkS") (width 0.12) (fill none) (tstamp e9bf7f30-f047-4641-8dc5-0c6dabe404c9))
  (fp_line (start 5.85 -1.95) (end -5.85 -1.95) (layer "Dwgs.User") (width 0.12) (tstamp 3b824599-d97d-4ff9-b2d7-e6fd4c28c171))
  (fp_line (start 3.25 -5.85) (end 3.25 5.85) (layer "Dwgs.User") (width 0.12) (tstamp 441ba442-2b3b-4fdc-8c62-5e3ce806f5fd))
  (fp_line (start 1.95 5.85) (end 1.95 -5.85) (layer "Dwgs.User") (width 0.12) (tstamp 4a62a3f0-5439-4d10-9a52-afe272c63ba0))
  (fp_line (start -4.55 -5.85) (end -4.55 5.85) (layer "Dwgs.User") (width 0.12) (tstamp 63494a36-7585-4875-bb14-3fb9da3141ee))
  (fp_line (start -5.85 4.55) (end 5.85 4.55) (layer "Dwgs.User") (width 0.12) (tstamp 748618ac-f6a6-4613-abc1-3f1ec6388aea))
  (fp_line (start -5.85 1.95) (end 5.85 1.95) (layer "Dwgs.User") (width 0.12) (tstamp 7c665f03-aa54-41ce-8580-04ca7833c795))
  (fp_line (start 4.55 5.85) (end 4.55 -5.85) (layer "Dwgs.User") (width 0.12) (tstamp 7e57e16b-430f-42cb-8f22-3eee297eb557))
  (fp_line (start 5.85 3.25) (end -5.85 3.25) (layer "Dwgs.User") (width 0.12) (tstamp 8bbb991f-d855-4e77-87ff-10996478b283))
  (fp_line (start 0.65 -5.85) (end 0.65 5.85) (layer "Dwgs.User") (width 0.12) (tstamp 9ada6bb8-b70c-47f4-8d79-ef0faef5b99b))
  (fp_line (start -5.85 -0.65) (end 5.85 -0.65) (layer "Dwgs.User") (width 0.12) (tstamp a5e744a5-d64d-431b-b0a8-290f865ac30f))
  (fp_line (start -0.65 5.85) (end -0.65 -5.85) (layer "Dwgs.User") (width 0.12) (tstamp a8e931e1-e8e5-4909-9eff-0c6a43574cd3))
  (fp_line (start 5.85 0.65) (end -5.85 0.65) (layer "Dwgs.User") (width 0.12) (tstamp ae51bae5-5cd2-4244-b3c1-edf94d19ff3a))
  (fp_line (start 5.85 -4.55) (end -5.85 -4.55) (layer "Dwgs.User") (width 0.12) (tstamp b01e12e8-9140-4655-8442-ca0c734df7e3))
  (fp_line (start -3.25 5.85) (end -3.25 -5.85) (layer "Dwgs.User") (width 0.12) (tstamp b6d238c1-4d2e-47c3-b24f-7b00ad5d5266))
  (fp_line (start -5.85 -3.25) (end 5.85 -3.25) (layer "Dwgs.User") (width 0.12) (tstamp f362beae-7299-4634-a9d1-d8254410d978))
  (fp_line (start -1.95 -5.85) (end -1.95 5.85) (layer "Dwgs.User") (width 0.12) (tstamp ffa6f231-5b0d-417e-9488-5500e9eac5d3))
  (fp_rect (start -5.85 -5.85) (end 5.85 5.85) (layer "Dwgs.User") (width 0.12) (fill none) (tstamp 3a59eca7-2fe5-4456-889b-9e0d947b4124))
  (fp_rect (start -6.15 -6.15) (end 6.15 6.15) (layer "F.CrtYd") (width 0.05) (fill none) (tstamp 53b856ed-7a10-4385-bbf1-906c72243546))
  (pad "1" smd circle (at -5.2 -5.2) (size 0.4 0.4) (layers "F.Cu" "F.Paste" "F.Mask") (tstamp c4bef511-e558-4e61-91ed-4aac13bde207))
  (pad "2" smd circle (at -5.2 -3.9) (size 0.4 0.4) (layers "F.Cu" "F.Paste" "F.Mask") (tstamp dd3d3c71-1da9-4ec0-b553-135d34ee3cda))
  (pad "3" smd circle (at -5.2 -2.6) (size 0.4 0.4) (layers "F.Cu" "F.Paste" "F.Mask") (tstamp 92876bb6-85c6-4221-9156-b5f174cfa5d3))
  (pad "4" smd circle (at -5.2 -1.3) (size 0.4 0.4) (layers "F.Cu" "F.Paste" "F.Mask") (tstamp cfb18813-00ed-4a9a-87ef-69d4691ed189))
  (pad "5" smd circle (at -5.2 0) (size 0.4 0.4) (layers "F.Cu" "F.Paste" "F.Mask") (tstamp 9590292f-2162-487a-98b3-7f02dd0f97ea))
  (pad "6" smd circle (at -5.2 1.3) (size 0.4 0.4) (layers "F.Cu" "F.Paste" "F.Mask") (tstamp 1a9d8bc1-7bb3-4409-aea3-3def7062eaf7))
  (pad "7" smd circle (at -5.2 2.6) (size 0.4 0.4) (layers "F.Cu" "F.Paste" "F.Mask") (tstamp e58470de-de16-4143-8350-bc01b0d5cba7))
  (pad "8" smd circle (at -5.2 3.9) (size 0.4 0.4) (layers "F.Cu" "F.Paste" "F.Mask") (tstamp be5b9b1a-2d2b-4efd-9b6b-abe848e68daf))
  (pad "9" smd circle (at -5.2 5.2) (size 0.4 0.4) (layers "F.Cu" "F.Paste" "F.Mask") (tstamp c7486470-b191-4219-bae7-a16abe575b53))
  (pad "10" smd circle (at -3.9 -5.2) (size 0.4 0.4) (layers "F.Cu" "F.Paste" "F.Mask") (tstamp e6733dfc-bc5e-4456-be13-75bc925bdf6e))
  (pad "11" smd circle (at -3.9 -3.9) (size 0.4 0.4) (layers "F.Cu" "F.Paste" "F.Mask") (tstamp 42e0a0f5-d84b-402c-a205-455df002bae3))
  (pad "12" smd circle (at -3.9 -2.6) (size 0.4 0.4) (layers "F.Cu" "F.Paste" "F.Mask") (tstamp d57b73bc-9b38-497e-a9a8-6903c5cbab21))
  (pad "13" smd circle (at -3.9 -1.3) (size 0.4 0.4) (layers "F.Cu" "F.Paste" "F.Mask") (tstamp d8db1cc7-c9ab-480e-98e2-317d3a5c5906))
  (pad "14" smd circle (at -3.9 0) (size 0.4 0.4) (layers "F.Cu" "F.Paste" "F.Mask") (tstamp 3cb64b6c-9df4-4f20-9c95-11e6a7554bc7))
  (pad "15" smd circle (at -3.9 1.3) (size 0.4 0.4) (layers "F.Cu" "F.Paste" "F.Mask") (tstamp acb3ac41-d74a-4488-866b-553bda180b3f))
  (pad "16" smd circle (at -3.9 2.6) (size 0.4 0.4) (layers "F.Cu" "F.Paste" "F.Mask") (tstamp 86da682d-2edc-48a9-be8b-081e151c8b31))
  (pad "17" smd circle (at -3.9 3.9) (size 0.4 0.4) (layers "F.Cu" "F.Paste" "F.Mask") (tstamp 97f2afa2-10d9-4fea-8552-e96a37c1df3c))
  (pad "18" smd circle (at -3.9 5.2) (size 0.4 0.4) (layers "F.Cu" "F.Paste" "F.Mask") (tstamp 0ab34bd1-cd2e-4f81-9bfa-db6361bf985c))
  (pad "19" smd circle (at -2.6 -5.2) (size 0.4 0.4) (layers "F.Cu" "F.Paste" "F.Mask") (tstamp 129015f9-4b0b-446e-8f0a-54f70452f6e0))
  (pad "20" smd circle (at -2.6 -3.9) (size 0.4 0.4) (layers "F.Cu" "F.Paste" "F.Mask") (tstamp cebc8429-b674-4d14-b072-14c05f34faf8))
  (pad "21" smd circle (at -2.6 -2.6) (size 0.4 0.4) (layers "F.Cu" "F.Paste" "F.Mask") (tstamp 1f0693f6-5736-436b-a2fa-d5f1cf15e4ea))
  (pad "22" smd circle (at -2.6 -1.3) (size 0.4 0.4) (layers "F.Cu" "F.Paste" "F.Mask") (tstamp 8a0ccf9b-1e9f-405a-bb70-26046ed16958))
  (pad "23" smd circle (at -2.6 0) (size 0.4 0.4) (layers "F.Cu" "F.Paste" "F.Mask") (tstamp 570399f2-a995-4a9c-9cb9-307e1c5414bf))
  (pad "24" smd circle (at -2.6 1.3) (size 0.4 0.4) (layers "F.Cu" "F.Paste" "F.Mask") (tstamp 1fa9862b-447b-4f1a-9166-8cb477faf814))
  (pad "25" smd circle (at -2.6 2.6) (size 0.4 0.4) (layers "F.Cu" "F.Paste" "F.Mask") (tstamp 6a606728-17d1-44c2-9562-a7106ffd7de9))
  (pad "26" smd circle (at -2.6 3.9) (size 0.4 0.4) (layers "F.Cu" "F.Paste" "F.Mask") (tstamp a54a669f-8404-4ac0-955d-dba4fec0193e))
  (pad "27" smd circle (at -2.6 5.2) (size 0.4 0.4) (layers "F.Cu" "F.Paste" "F.Mask") (tstamp ec0ff2a3-69fe-47ee-b5c0-c2bf397e159a))
  (pad "28" smd circle (at -1.3 -5.2) (size 0.4 0.4) (layers "F.Cu" "F.Paste" "F.Mask") (tstamp ce8e8ebc-ff50-4395-8190-851c8d1211db))
  (pad "29" smd circle (at -1.3 -3.9) (size 0.4 0.4) (layers "F.Cu" "F.Paste" "F.Mask") (tstamp 586f38ae-2c89-40a9-8c0c-775c5386b62e))
  (pad "30" smd circle (at -1.3 -2.6) (size 0.4 0.4) (layers "F.Cu" "F.Paste" "F.Mask") (tstamp a05e6286-c4b9-4441-8d9a-acc3bf783f27))
  (pad "31" smd circle (at -1.3 -1.3) (size 0.4 0.4) (layers "F.Cu" "F.Paste" "F.Mask") (tstamp 62e8149d-4a0f-4bf8-bd09-affa42301808))
  (pad "32" smd circle (at -1.3 0) (size 0.4 0.4) (layers "F.Cu" "F.Paste" "F.Mask") (tstamp 723d2fc9-ac91-47c5-81b3-34c03b757bfc))
  (pad "33" smd circle (at -1.3 1.3) (size 0.4 0.4) (layers "F.Cu" "F.Paste" "F.Mask") (tstamp a90eace3-85fc-412c-8b1d-f1243a3a7aef))
  (pad "34" smd circle (at -1.3 2.6) (size 0.4 0.4) (layers "F.Cu" "F.Paste" "F.Mask") (tstamp e9ddbf03-9cd3-437a-89dd-e2ea50560a75))
  (pad "35" smd circle (at -1.3 3.9) (size 0.4 0.4) (layers "F.Cu" "F.Paste" "F.Mask") (tstamp 4f833274-4025-4568-b042-533ff849dcb1))
  (pad "36" smd circle (at -1.3 5.2) (size 0.4 0.4) (layers "F.Cu" "F.Paste" "F.Mask") (tstamp 9a34b301-2b59-4633-afad-93f91ec6f72b))
  (pad "37" smd circle (at 0 -5.2) (size 0.4 0.4) (layers "F.Cu" "F.Paste" "F.Mask") (tstamp 2e7f28e2-9be6-491f-b806-2d7cc4c2d841))
  (pad "38" smd circle (at 0 -3.9) (size 0.4 0.4) (layers "F.Cu" "F.Paste" "F.Mask") (tstamp cc42ceb5-d9a6-4177-b5ef-b5fc84fbff0a))
  (pad "39" smd circle (at 0 -2.6) (size 0.4 0.4) (layers "F.Cu" "F.Paste" "F.Mask") (tstamp 1178d033-d1d9-4e4f-af48-1eade6c586d4))
  (pad "40" smd circle (at 0 -1.3) (size 0.4 0.4) (layers "F.Cu" "F.Paste" "F.Mask") (tstamp eecf2ea0-8392-4008-8833-f3dc268831c4))
  (pad "41" smd circle (at 0 0) (size 0.4 0.4) (layers "F.Cu" "F.Paste" "F.Mask") (tstamp 62ff5e98-5ffe-4216-8766-d90a3b00bf92))
  (pad "42" smd circle (at 0 1.3) (size 0.4 0.4) (layers "F.Cu" "F.Paste" "F.Mask") (tstamp a60a2126-6243-4c7d-8e58-d7f3529b9839))
  (pad "43" smd circle (at 0 2.6) (size 0.4 0.4) (layers "F.Cu" "F.Paste" "F.Mask") (tstamp 1e34b33c-ecbd-421f-b6f0-e731d94b797d))
  (pad "44" smd circle (at 0 3.9) (size 0.4 0.4) (layers "F.Cu" "F.Paste" "F.Mask") (tstamp 42af0972-1489-4047-bc84-5db42dda3270))
  (pad "45" smd circle (at 0 5.2) (size 0.4 0.4) (layers "F.Cu" "F.Paste" "F.Mask") (tstamp ad09bf26-8388-4658-adcb-f088c686a02e))
  (pad "46" smd circle (at 1.3 -5.2) (size 0.4 0.4) (layers "F.Cu" "F.Paste" "F.Mask") (tstamp 0652ed32-b8d3-446b-9576-895824bdfd1d))
  (pad "47" smd circle (at 1.3 -3.9) (size 0.4 0.4) (layers "F.Cu" "F.Paste" "F.Mask") (tstamp ff47862a-5cc3-48c4-a6c1-2dff3f80c994))
  (pad "48" smd circle (at 1.3 -2.6) (size 0.4 0.4) (layers "F.Cu" "F.Paste" "F.Mask") (tstamp b07e9088-4449-44b5-bec7-682dae9405fd))
  (pad "49" smd circle (at 1.3 -1.3) (size 0.4 0.4) (layers "F.Cu" "F.Paste" "F.Mask") (tstamp ae4d2e48-5637-4544-985c-9b0f97a51681))
  (pad "50" smd circle (at 1.3 0) (size 0.4 0.4) (layers "F.Cu" "F.Paste" "F.Mask") (tstamp 7d3a28b7-e9c0-46ae-b15c-04252f982fa5))
  (pad "51" smd circle (at 1.3 1.3) (size 0.4 0.4) (layers "F.Cu" "F.Paste" "F.Mask") (tstamp 177aaef3-d1ce-4b2c-9cc4-47f53ec12ced))
  (pad "52" smd circle (at 1.3 2.6) (size 0.4 0.4) (layers "F.Cu" "F.Paste" "F.Mask") (tstamp 403c1b81-ea3c-44d1-ad96-3f942fefa2da))
  (pad "53" smd circle (at 1.3 3.9) (size 0.4 0.4) (layers "F.Cu" "F.Paste" "F.Mask") (tstamp eead8db7-811e-41e3-bbdd-1914a8410b79))
  (pad "54" smd circle (at 1.3 5.2) (size 0.4 0.4) (layers "F.Cu" "F.Paste" "F.Mask") (tstamp 0e578c89-5266-445b-b306-5104ff9fc4c0))
  (pad "55" smd circle (at 2.6 -5.2) (size 0.4 0.4) (layers "F.Cu" "F.Paste" "F.Mask") (tstamp 64062747-835b-4642-a550-f79cf34d108b))
  (pad "56" smd circle (at 2.6 -3.9) (size 0.4 0.4) (layers "F.Cu" "F.Paste" "F.Mask") (tstamp 7f2ef5fb-dda4-4dad-b088-6e09048d58dd))
  (pad "57" smd circle (at 2.6 -2.6) (size 0.4 0.4) (layers "F.Cu" "F.Paste" "F.Mask") (tstamp 97a5927d-2fee-48df-8dbd-e4a04712035f))
  (pad "58" smd circle (at 2.6 -1.3) (size 0.4 0.4) (layers "F.Cu" "F.Paste" "F.Mask") (tstamp 33bc5400-09bd-4e42-81b9-cdca2b1b534c))
  (pad "59" smd circle (at 2.6 0) (size 0.4 0.4) (layers "F.Cu" "F.Paste" "F.Mask") (tstamp 634fdd7c-18a2-4691-a757-b86edaf80be0))
  (pad "60" smd circle (at 2.6 1.3) (size 0.4 0.4) (layers "F.Cu" "F.Paste" "F.Mask") (tstamp c323c72f-72a0-4604-af8f-2965d4647d0b))
  (pad "61" smd circle (at 2.6 2.6) (size 0.4 0.4) (layers "F.Cu" "F.Paste" "F.Mask") (tstamp c871c000-cdeb-4141-a9e6-58bb7831bd34))
  (pad "62" smd circle (at 2.6 3.9) (size 0.4 0.4) (layers "F.Cu" "F.Paste" "F.Mask") (tstamp 5a454f17-637e-4367-827e-0f8805de6b5d))
  (pad "63" smd circle (at 2.6 5.2) (size 0.4 0.4) (layers "F.Cu" "F.Paste" "F.Mask") (tstamp 6c7c32ad-08c1-45e9-96ce-1dc82a3b8405))
  (pad "64" smd circle (at 3.9 -5.2) (size 0.4 0.4) (layers "F.Cu" "F.Paste" "F.Mask") (tstamp 8c4e831e-9ab1-4ca7-9d45-7c6acddf9690))
  (pad "65" smd circle (at 3.9 -3.9) (size 0.4 0.4) (layers "F.Cu" "F.Paste" "F.Mask") (tstamp 92c1986e-6514-4f6e-8666-0ae8a149b39a))
  (pad "66" smd circle (at 3.9 -2.6) (size 0.4 0.4) (layers "F.Cu" "F.Paste" "F.Mask") (tstamp 8dce3703-6876-4918-a97e-a60bececa3f3))
  (pad "67" smd circle (at 3.9 -1.3) (size 0.4 0.4) (layers "F.Cu" "F.Paste" "F.Mask") (tstamp 9115247f-d3d8-4693-bb9d-5dec42f09067))
  (pad "68" smd circle (at 3.9 0) (size 0.4 0.4) (layers "F.Cu" "F.Paste" "F.Mask") (tstamp 40e7bd31-532f-4e0f-b62a-3c23503beeb0))
  (pad "69" smd circle (at 3.9 1.3) (size 0.4 0.4) (layers "F.Cu" "F.Paste" "F.Mask") (tstamp d0916fc4-f61a-45b8-a49d-6a534e5f6f17))
  (pad "70" smd circle (at 3.9 2.6) (size 0.4 0.4) (layers "F.Cu" "F.Paste" "F.Mask") (tstamp fad9767f-9c15-468b-a60b-21df1d59908f))
  (pad "71" smd circle (at 3.9 3.9) (size 0.4 0.4) (layers "F.Cu" "F.Paste" "F.Mask") (tstamp fe794008-08f8-4707-8fd4-1ce45944b0b4))
  (pad "72" smd circle (at 3.9 5.2) (size 0.4 0.4) (layers "F.Cu" "F.Paste" "F.Mask") (tstamp 37d5822d-a032-4c4b-a82f-3f011225a234))
  (pad "73" smd circle (at 5.2 -5.2) (size 0.4 0.4) (layers "F.Cu" "F.Paste" "F.Mask") (tstamp b9682639-8da1-4a42-8807-3377a6c660fc))
  (pad "74" smd circle (at 5.2 -3.9) (size 0.4 0.4) (layers "F.Cu" "F.Paste" "F.Mask") (tstamp d37f6018-b2d2-4cb9-a811-e073eec855cc))
  (pad "75" smd circle (at 5.2 -2.6) (size 0.4 0.4) (layers "F.Cu" "F.Paste" "F.Mask") (tstamp 39427e48-c50f-4fc3-bc5e-7efdb49bb1b3))
  (pad "76" smd circle (at 5.2 -1.3) (size 0.4 0.4) (layers "F.Cu" "F.Paste" "F.Mask") (tstamp 5b9c0f5e-9b7a-46ea-8042-84b2a074c0bf))
  (pad "77" smd circle (at 5.2 0) (size 0.4 0.4) (layers "F.Cu" "F.Paste" "F.Mask") (tstamp 18ec7a30-5d17-4cbb-9e75-a3cf7c459152))
  (pad "78" smd circle (at 5.2 1.3) (size 0.4 0.4) (layers "F.Cu" "F.Paste" "F.Mask") (tstamp 4dacd5ef-94c8-4f1b-a628-a9a1f8976212))
  (pad "79" smd circle (at 5.2 2.6) (size 0.4 0.4) (layers "F.Cu" "F.Paste" "F.Mask") (tstamp 2c9fb963-d131-40fe-b804-c8d830ad0186))
  (pad "80" smd circle (at 5.2 3.9) (size 0.4 0.4) (layers "F.Cu" "F.Paste" "F.Mask") (tstamp 5ea84084-1f1d-4cae-a9cf-d33ef5f9b3c7))
  (pad "81" smd circle (at 5.2 5.2) (size 0.4 0.4) (layers "F.Cu" "F.Paste" "F.Mask") (tstamp 37f65998-9567-414a-a806-9685a8692dba))
)
