(footprint "LGAD 1.3 6x6 D3.2 M2" (version 20211014) (generator pcbnew)
  (layer "F.Cu")
  (tedit 0)
  (attr smd)
  (fp_text reference "REF**" (at 0 -4.9 unlocked) (layer "F.SilkS")
    (effects (font (size 1 1) (thickness 0.15)))
    (tstamp d0557898-91ee-4091-982b-33c9a38b179d)
  )
  (fp_text value "LGAD 1.3 6x6 D3.2 M2" (at 0 5 unlocked) (layer "F.Fab")
    (effects (font (size 1 1) (thickness 0.15)))
    (tstamp 5659137d-a020-40b1-8a97-00fe11165388)
  )
  (fp_text user "${REFERENCE}" (at 0 6.3 unlocked) (layer "F.Fab")
    (effects (font (size 1 1) (thickness 0.15)))
    (tstamp acbfd4f8-aad6-4cd7-ac1c-066e4c31784a)
  )
  (fp_rect (start -3.9 3.25) (end -3.25 3.9) (layer "F.SilkS") (width 0.12) (fill none) (tstamp 20612448-0e2b-4a76-a975-e0ce67232e1d))
  (fp_rect (start -4.2 -4.2) (end 4.2 4.2) (layer "F.SilkS") (width 0.12) (fill none) (tstamp 347c1b65-c809-4a0e-9f56-638743d63ed7))
  (fp_line (start 3.9 -1.3) (end -3.9 -1.3) (layer "Dwgs.User") (width 0.12) (tstamp 16913923-1400-4183-9ac1-c7b0f74ec76a))
  (fp_line (start -3.9 -1.95) (end -3.25 -1.95) (layer "Dwgs.User") (width 0.12) (tstamp 2e56e926-1cc0-4d34-a516-a5627ea3a6fc))
  (fp_line (start -1.3 3.9) (end -1.3 -3.9) (layer "Dwgs.User") (width 0.12) (tstamp 3bedd9a6-e99f-4a8e-938e-794d197c066b))
  (fp_line (start -3.9 0) (end 3.9 0) (layer "Dwgs.User") (width 0.12) (tstamp 4d3de802-6efb-468f-85b5-b357ec2643b9))
  (fp_line (start -3.25 -3.9) (end -3.25 3.9) (layer "Dwgs.User") (width 0.12) (tstamp 65038074-766f-4a32-aa8c-efa9e0dc5bfa))
  (fp_line (start -3.25 1.95) (end -3.9 1.95) (layer "Dwgs.User") (width 0.12) (tstamp 6c195db7-54b7-41e8-818b-d5518d7c1698))
  (fp_line (start -3.25 -0.65) (end -3.9 -0.65) (layer "Dwgs.User") (width 0.12) (tstamp 6dc6111d-8b97-4932-8efc-6b8fc8893746))
  (fp_line (start -3.9 2.6) (end 3.9 2.6) (layer "Dwgs.User") (width 0.12) (tstamp 788afd51-50e6-447b-8bc4-46371c4de628))
  (fp_line (start -3.9 3.25) (end -3.25 3.25) (layer "Dwgs.User") (width 0.12) (tstamp 8a9a89a9-634d-4b50-915b-5219a294ca14))
  (fp_line (start -2.6 -3.9) (end -2.6 3.9) (layer "Dwgs.User") (width 0.12) (tstamp ad3570c7-3e0d-47ee-9e5f-1403fb5923a4))
  (fp_line (start 3.9 1.3) (end -3.9 1.3) (layer "Dwgs.User") (width 0.12) (tstamp b79e0193-d227-454b-a9ac-6e4ebfc2e563))
  (fp_line (start 1.3 -3.9) (end 1.3 3.9) (layer "Dwgs.User") (width 0.12) (tstamp f2057ad6-b7eb-4a78-b783-451e33a2be5d))
  (fp_line (start -3.9 0.65) (end -3.25 0.65) (layer "Dwgs.User") (width 0.12) (tstamp f4f2a808-7719-4410-bc61-63767f471341))
  (fp_line (start -3.9 -2.6) (end 3.9 -2.6) (layer "Dwgs.User") (width 0.12) (tstamp f6489e4f-17e6-41ad-9482-86cb4a90870a))
  (fp_line (start -3.25 -3.25) (end -3.9 -3.25) (layer "Dwgs.User") (width 0.12) (tstamp fd322817-b8a5-4931-aad1-19d7418e77dd))
  (fp_rect (start -3.9 -3.9) (end 3.9 3.9) (layer "Dwgs.User") (width 0.12) (fill none) (tstamp 86f4b213-5c74-46bf-a5ad-f9a4fc2adbc2))
  (fp_rect (start -4.2 -4.2) (end 4.2 4.2) (layer "F.CrtYd") (width 0.05) (fill none) (tstamp 4eb5e5d6-fa47-435c-967e-32de273a7956))
  (pad "1" smd roundrect (at -3.575 3.575) (size 0.4 0.4) (layers "F.Cu" "F.Paste" "F.Mask") (roundrect_rratio 0.25) (tstamp 5dbc90ed-7dc7-43b0-aac4-5a3dbf3e7a7d))
  (pad "2" smd roundrect (at -3.575 2.925) (size 0.4 0.4) (layers "F.Cu" "F.Paste" "F.Mask") (roundrect_rratio 0.25) (tstamp de57b2a1-7f7f-4cb7-8055-ae1e21b54304))
  (pad "3" smd roundrect (at -3.575 2.275) (size 0.4 0.4) (layers "F.Cu" "F.Paste" "F.Mask") (roundrect_rratio 0.25) (tstamp 0f2eb07e-2381-4e6f-ac82-12b806e41e79))
  (pad "4" smd roundrect (at -3.575 1.625) (size 0.4 0.4) (layers "F.Cu" "F.Paste" "F.Mask") (roundrect_rratio 0.25) (tstamp 2c669b78-a449-4b8c-b8ac-96c23b30e356))
  (pad "5" smd roundrect (at -3.575 0.975) (size 0.4 0.4) (layers "F.Cu" "F.Paste" "F.Mask") (roundrect_rratio 0.25) (tstamp f2e639fe-bcc1-41c7-a2b4-ecb5136baece))
  (pad "6" smd roundrect (at -3.575 0.325) (size 0.4 0.4) (layers "F.Cu" "F.Paste" "F.Mask") (roundrect_rratio 0.25) (tstamp d089be2f-d23e-40a0-9cff-2fc68c6d5955))
  (pad "7" smd roundrect (at -3.575 -0.325) (size 0.4 0.4) (layers "F.Cu" "F.Paste" "F.Mask") (roundrect_rratio 0.25) (tstamp 409f349e-dfb3-40e7-bc8d-b4f9d967f8d7))
  (pad "8" smd roundrect (at -3.575 -0.975) (size 0.4 0.4) (layers "F.Cu" "F.Paste" "F.Mask") (roundrect_rratio 0.25) (tstamp 06468f52-4068-478f-b42c-986b3c4b0289))
  (pad "9" smd roundrect (at -3.575 -1.625) (size 0.4 0.4) (layers "F.Cu" "F.Paste" "F.Mask") (roundrect_rratio 0.25) (tstamp 70431bd2-6687-4298-a212-6fbf46072781))
  (pad "10" smd roundrect (at -3.575 -2.275) (size 0.4 0.4) (layers "F.Cu" "F.Paste" "F.Mask") (roundrect_rratio 0.25) (tstamp 2dc4a48e-902b-4034-9f8d-c80e558769f6))
  (pad "11" smd roundrect (at -3.575 -2.925) (size 0.4 0.4) (layers "F.Cu" "F.Paste" "F.Mask") (roundrect_rratio 0.25) (tstamp 29b13d48-3bda-44f5-92d3-bacecba62605))
  (pad "12" smd roundrect (at -3.575 -3.575) (size 0.4 0.4) (layers "F.Cu" "F.Paste" "F.Mask") (roundrect_rratio 0.25) (tstamp 841a8a6d-4b3e-48c2-b93f-8e1b2dca2f09))
  (pad "13" smd roundrect (at -2.925 3.25) (size 0.4 0.4) (layers "F.Cu" "F.Paste" "F.Mask") (roundrect_rratio 0.25) (tstamp b91472bb-1d9b-4690-aff3-04c5bdb5976b))
  (pad "14" smd roundrect (at -2.925 1.95) (size 0.4 0.4) (layers "F.Cu" "F.Paste" "F.Mask") (roundrect_rratio 0.25) (tstamp 291eb3f9-e301-4e9d-ae1a-2fee4228b5a0))
  (pad "15" smd roundrect (at -2.925 0.65) (size 0.4 0.4) (layers "F.Cu" "F.Paste" "F.Mask") (roundrect_rratio 0.25) (tstamp d8b7e151-f90c-46f0-8a00-e62d0803d429))
  (pad "16" smd roundrect (at -2.925 -0.65) (size 0.4 0.4) (layers "F.Cu" "F.Paste" "F.Mask") (roundrect_rratio 0.25) (tstamp c8defee2-6087-4cb5-8346-c2a7af459f9e))
  (pad "17" smd roundrect (at -2.925 -1.95) (size 0.4 0.4) (layers "F.Cu" "F.Paste" "F.Mask") (roundrect_rratio 0.25) (tstamp 392d88a5-72d7-45bf-b975-cf8144c60c4e))
  (pad "18" smd roundrect (at -2.925 -3.25) (size 0.4 0.4) (layers "F.Cu" "F.Paste" "F.Mask") (roundrect_rratio 0.25) (tstamp e49b8518-f2e3-40de-8700-9f24e2158f8e))
  (pad "19" smd roundrect (at -1.95 3.25) (size 0.4 0.4) (layers "F.Cu" "F.Paste" "F.Mask") (roundrect_rratio 0.25) (tstamp 4167d19e-95ac-43ef-9550-58755fac6a1e))
  (pad "20" smd roundrect (at -1.95 1.95) (size 0.4 0.4) (layers "F.Cu" "F.Paste" "F.Mask") (roundrect_rratio 0.25) (tstamp 15f8e17a-94bc-4d3a-8316-58685d4e597a))
  (pad "21" smd roundrect (at -1.95 0.65) (size 0.4 0.4) (layers "F.Cu" "F.Paste" "F.Mask") (roundrect_rratio 0.25) (tstamp 9a9b92b2-9d84-4ddd-8584-ad4f061101a0))
  (pad "22" smd roundrect (at -1.95 -0.65) (size 0.4 0.4) (layers "F.Cu" "F.Paste" "F.Mask") (roundrect_rratio 0.25) (tstamp 5e306f23-125d-45a4-9e78-904093af0aee))
  (pad "23" smd roundrect (at -1.95 -1.95) (size 0.4 0.4) (layers "F.Cu" "F.Paste" "F.Mask") (roundrect_rratio 0.25) (tstamp 38a938a9-5f03-45a0-ab21-33d83fbfe184))
  (pad "24" smd roundrect (at -1.95 -3.25) (size 0.4 0.4) (layers "F.Cu" "F.Paste" "F.Mask") (roundrect_rratio 0.25) (tstamp e80df1ae-43ab-4a60-b3e8-ad1cff1f601a))
  (pad "25" smd roundrect (at 0 3.25) (size 0.4 0.4) (layers "F.Cu" "F.Paste" "F.Mask") (roundrect_rratio 0.25) (tstamp 6b35a06b-03dc-4a59-9ff3-74da5c176667))
  (pad "26" smd roundrect (at 0 1.95) (size 0.4 0.4) (layers "F.Cu" "F.Paste" "F.Mask") (roundrect_rratio 0.25) (tstamp 31f76923-a5e2-44a6-bf20-00421805c603))
  (pad "27" smd roundrect (at 0 0.65) (size 0.4 0.4) (layers "F.Cu" "F.Paste" "F.Mask") (roundrect_rratio 0.25) (tstamp a3dd0ac9-2966-46f6-959b-213f6cac00c2))
  (pad "28" smd roundrect (at 0 -0.65) (size 0.4 0.4) (layers "F.Cu" "F.Paste" "F.Mask") (roundrect_rratio 0.25) (tstamp 9de98b9c-44c5-44ef-ae69-bcf50bc3c046))
  (pad "29" smd roundrect (at 0 -1.95) (size 0.4 0.4) (layers "F.Cu" "F.Paste" "F.Mask") (roundrect_rratio 0.25) (tstamp da7c4f0e-a1c4-4466-9527-21e0046ae1ea))
  (pad "30" smd roundrect (at 0 -3.25) (size 0.4 0.4) (layers "F.Cu" "F.Paste" "F.Mask") (roundrect_rratio 0.25) (tstamp 63bfcc51-5a15-4cc2-8156-142b08691872))
  (pad "31" smd roundrect (at 2.6 3.25) (size 0.4 0.4) (layers "F.Cu" "F.Paste" "F.Mask") (roundrect_rratio 0.25) (tstamp 183f4da9-85ac-4b84-85ee-1787259ff190))
  (pad "32" smd roundrect (at 2.6 1.95) (size 0.4 0.4) (layers "F.Cu" "F.Paste" "F.Mask") (roundrect_rratio 0.25) (tstamp 6d63cd11-9008-4d4d-8331-4401afff98a0))
  (pad "33" smd roundrect (at 2.6 0.65) (size 0.4 0.4) (layers "F.Cu" "F.Paste" "F.Mask") (roundrect_rratio 0.25) (tstamp 74d30064-0ebe-46f6-a67c-5e0d49a4bc74))
  (pad "34" smd roundrect (at 2.6 -0.65) (size 0.4 0.4) (layers "F.Cu" "F.Paste" "F.Mask") (roundrect_rratio 0.25) (tstamp 52a0ee59-394b-4230-a52a-52bcd53f14c4))
  (pad "35" smd roundrect (at 2.6 -1.95) (size 0.4 0.4) (layers "F.Cu" "F.Paste" "F.Mask") (roundrect_rratio 0.25) (tstamp a8ab1853-bfc6-4c9f-a8f2-e667b1002bc0))
  (pad "36" smd roundrect (at 2.6 -3.25) (size 0.4 0.4) (layers "F.Cu" "F.Paste" "F.Mask") (roundrect_rratio 0.25) (tstamp d0f4c89d-c58e-4efc-9cf5-bf59339f2dc6))
)
