(footprint "LGAD 1.3 7x7 D4.2 M3" (version 20211014) (generator pcbnew)
  (layer "F.Cu")
  (tedit 0)
  (attr smd)
  (fp_text reference "REF**" (at 0 -5.6 unlocked) (layer "F.SilkS")
    (effects (font (size 1 1) (thickness 0.15)))
    (tstamp b2968470-ac83-4ecb-a68c-322cd0188629)
  )
  (fp_text value "LGAD 1.3 7x7 D4.2 M3" (at 0 5.7 unlocked) (layer "F.Fab")
    (effects (font (size 1 1) (thickness 0.15)))
    (tstamp 2913568e-5cab-4734-a564-fe31330ded66)
  )
  (fp_text user "${REFERENCE}" (at 0 7 unlocked) (layer "F.Fab")
    (effects (font (size 1 1) (thickness 0.15)))
    (tstamp c47330e1-f9c1-4e6f-b64b-cf050439e60c)
  )
  (fp_rect (start -4.55 3.9) (end -3.9 4.55) (layer "F.SilkS") (width 0.12) (fill none) (tstamp 497dfb3d-dfbd-44ff-8242-6cbc669d9e9c))
  (fp_rect (start -4.85 -4.85) (end 4.85 4.85) (layer "F.SilkS") (width 0.12) (fill none) (tstamp f9496cc6-c1ee-4009-98b7-63d93aff5b66))
  (fp_line (start -4.55 -3.25) (end 4.55 -3.25) (layer "Dwgs.User") (width 0.12) (tstamp 00fffe83-c7c3-4686-8283-7214e820d303))
  (fp_line (start -3.25 -1.3) (end -4.55 -1.3) (layer "Dwgs.User") (width 0.12) (tstamp 4b21d560-ae0c-4751-a9c2-bf4dfdc0660d))
  (fp_line (start -3.25 -3.9) (end -4.55 -3.9) (layer "Dwgs.User") (width 0.12) (tstamp 50448d76-3aa8-4384-8ccf-0c3d70e8210c))
  (fp_line (start -3.25 3.9) (end -4.55 3.9) (layer "Dwgs.User") (width 0.12) (tstamp 50d67873-5ce3-406e-b6c3-bd07b6ad2d2a))
  (fp_line (start 4.55 3.25) (end -4.55 3.25) (layer "Dwgs.User") (width 0.12) (tstamp 5c73b3cc-7c2c-4340-ab34-bbf9bbac97f2))
  (fp_line (start 1.95 -4.55) (end 1.95 4.55) (layer "Dwgs.User") (width 0.12) (tstamp 62a6be10-a4d3-4661-b15b-d15d9d0d5a32))
  (fp_line (start -3.25 1.3) (end -4.55 1.3) (layer "Dwgs.User") (width 0.12) (tstamp 6303db1a-883c-4cec-a48d-067aeb17c8bb))
  (fp_line (start 4.55 0.65) (end -4.55 0.65) (layer "Dwgs.User") (width 0.12) (tstamp 6b4fe884-df35-4a45-a466-11d822f8caec))
  (fp_line (start 4.55 -1.95) (end -4.55 -1.95) (layer "Dwgs.User") (width 0.12) (tstamp 79fe6ac3-f5d1-4cfe-b36b-5deedd4bff44))
  (fp_line (start -3.9 -4.55) (end -3.9 4.55) (layer "Dwgs.User") (width 0.12) (tstamp a96af0ae-ec4d-470c-b9f5-a610bab276d5))
  (fp_line (start -4.55 -2.6) (end -3.25 -2.6) (layer "Dwgs.User") (width 0.12) (tstamp b200fcbb-cde6-4844-8aeb-9aa80fad8c27))
  (fp_line (start -4.55 0) (end -3.25 0) (layer "Dwgs.User") (width 0.12) (tstamp b9351faf-b025-4604-9ac2-599ee987d35b))
  (fp_line (start -4.55 1.95) (end 4.55 1.95) (layer "Dwgs.User") (width 0.12) (tstamp c96aad8f-f792-480e-919d-4940bde52f47))
  (fp_line (start -3.25 -4.55) (end -3.25 4.55) (layer "Dwgs.User") (width 0.12) (tstamp d4ce05c2-f089-4f91-bc42-012222c9d1ee))
  (fp_line (start -4.55 -0.65) (end 4.55 -0.65) (layer "Dwgs.User") (width 0.12) (tstamp e1820e1b-e716-474e-823b-22b92c2f4af5))
  (fp_line (start -4.55 2.6) (end -3.25 2.6) (layer "Dwgs.User") (width 0.12) (tstamp f31aee88-9b40-4d45-aa53-256c840f92bc))
  (fp_line (start -0.65 -4.55) (end -0.65 4.55) (layer "Dwgs.User") (width 0.12) (tstamp f7386836-0d3b-4b5b-8823-4110543bb545))
  (fp_rect (start -4.55 -4.55) (end 4.55 4.55) (layer "Dwgs.User") (width 0.12) (fill none) (tstamp d368fb2c-d5a5-42a5-a54f-1cf18ee56821))
  (fp_rect (start -4.85 -4.85) (end 4.85 4.85) (layer "F.CrtYd") (width 0.05) (fill none) (tstamp 11eacf3a-3a60-4618-bd7f-0f3f49404113))
  (pad "1" smd roundrect (at -4.225 4.225) (size 0.4 0.4) (layers "F.Cu" "F.Paste" "F.Mask") (roundrect_rratio 0.25) (tstamp 8ba0b5c9-cd71-4561-bb5a-d2431617cd00))
  (pad "2" smd roundrect (at -3.575 4.225) (size 0.4 0.4) (layers "F.Cu" "F.Paste" "F.Mask") (roundrect_rratio 0.25) (tstamp bdc26527-73ff-4a5b-9381-5d12d7c138c8))
  (pad "3" smd roundrect (at -4.225 3.575) (size 0.4 0.4) (layers "F.Cu" "F.Paste" "F.Mask") (roundrect_rratio 0.25) (tstamp d3efb07a-3581-4b6f-b5d0-540776f03a71))
  (pad "4" smd roundrect (at -3.575 3.575) (size 0.4 0.4) (layers "F.Cu" "F.Paste" "F.Mask") (roundrect_rratio 0.25) (tstamp 28b99b1f-8531-4f14-bf01-2f90184f7379))
  (pad "5" smd roundrect (at -4.225 2.925) (size 0.4 0.4) (layers "F.Cu" "F.Paste" "F.Mask") (roundrect_rratio 0.25) (tstamp 6ed7fcf8-0d2f-4ebe-ac88-dc50912a52d2))
  (pad "6" smd roundrect (at -3.575 2.925) (size 0.4 0.4) (layers "F.Cu" "F.Paste" "F.Mask") (roundrect_rratio 0.25) (tstamp 8dc377a0-edcb-4d3d-8499-17694d34fea6))
  (pad "7" smd roundrect (at -4.225 2.275) (size 0.4 0.4) (layers "F.Cu" "F.Paste" "F.Mask") (roundrect_rratio 0.25) (tstamp 63917308-5738-4799-8def-0a456eaaa3d8))
  (pad "8" smd roundrect (at -3.575 2.275) (size 0.4 0.4) (layers "F.Cu" "F.Paste" "F.Mask") (roundrect_rratio 0.25) (tstamp 5d6b6764-9540-4af1-a643-99cb80f16cbd))
  (pad "9" smd roundrect (at -4.225 1.625) (size 0.4 0.4) (layers "F.Cu" "F.Paste" "F.Mask") (roundrect_rratio 0.25) (tstamp 86752057-d612-446e-bf61-5f385876c90e))
  (pad "10" smd roundrect (at -3.575 1.625) (size 0.4 0.4) (layers "F.Cu" "F.Paste" "F.Mask") (roundrect_rratio 0.25) (tstamp 5879a468-7ebd-4077-bbf4-3e66a5920fd6))
  (pad "11" smd roundrect (at -4.225 0.975) (size 0.4 0.4) (layers "F.Cu" "F.Paste" "F.Mask") (roundrect_rratio 0.25) (tstamp a7191915-4f76-4fc5-8d56-d1c8df08b2c8))
  (pad "12" smd roundrect (at -3.575 0.975) (size 0.4 0.4) (layers "F.Cu" "F.Paste" "F.Mask") (roundrect_rratio 0.25) (tstamp cff4c2d4-f0fb-4d5a-9c96-12be4ee73600))
  (pad "13" smd roundrect (at -4.225 0.325) (size 0.4 0.4) (layers "F.Cu" "F.Paste" "F.Mask") (roundrect_rratio 0.25) (tstamp 0edbbea3-e1d4-4fda-b22a-6817c43753e5))
  (pad "14" smd roundrect (at -3.575 0.325) (size 0.4 0.4) (layers "F.Cu" "F.Paste" "F.Mask") (roundrect_rratio 0.25) (tstamp 5d4687c7-9ca1-4572-991a-627a513d61d5))
  (pad "15" smd roundrect (at -4.225 -0.325) (size 0.4 0.4) (layers "F.Cu" "F.Paste" "F.Mask") (roundrect_rratio 0.25) (tstamp 2dd5e956-1c61-4ce5-9e82-82e7340c6d86))
  (pad "16" smd roundrect (at -3.575 -0.325) (size 0.4 0.4) (layers "F.Cu" "F.Paste" "F.Mask") (roundrect_rratio 0.25) (tstamp afa6a39a-c86b-4c7a-9e46-248c30be4ecf))
  (pad "17" smd roundrect (at -4.225 -0.975) (size 0.4 0.4) (layers "F.Cu" "F.Paste" "F.Mask") (roundrect_rratio 0.25) (tstamp a409f499-efac-4455-a164-4f5a312b0696))
  (pad "18" smd roundrect (at -3.575 -0.975) (size 0.4 0.4) (layers "F.Cu" "F.Paste" "F.Mask") (roundrect_rratio 0.25) (tstamp 52b76075-c242-463d-9c8b-7f1828325039))
  (pad "19" smd roundrect (at -4.225 -1.625) (size 0.4 0.4) (layers "F.Cu" "F.Paste" "F.Mask") (roundrect_rratio 0.25) (tstamp 4ab12610-2c6b-4089-bf76-97b1fae909c2))
  (pad "20" smd roundrect (at -3.575 -1.625) (size 0.4 0.4) (layers "F.Cu" "F.Paste" "F.Mask") (roundrect_rratio 0.25) (tstamp 62a5b221-3f5b-4906-a728-475a235abf5e))
  (pad "21" smd roundrect (at -4.225 -2.275) (size 0.4 0.4) (layers "F.Cu" "F.Paste" "F.Mask") (roundrect_rratio 0.25) (tstamp 027ab840-ec26-4e48-8e10-b9366c481462))
  (pad "22" smd roundrect (at -3.575 -2.275) (size 0.4 0.4) (layers "F.Cu" "F.Paste" "F.Mask") (roundrect_rratio 0.25) (tstamp 9e6a244c-b9b3-4405-9bfd-5802ec99f81f))
  (pad "23" smd roundrect (at -4.225 -2.925) (size 0.4 0.4) (layers "F.Cu" "F.Paste" "F.Mask") (roundrect_rratio 0.25) (tstamp 8ca8374c-3384-48d2-a86a-79a3b4cca57c))
  (pad "24" smd roundrect (at -3.575 -2.925) (size 0.4 0.4) (layers "F.Cu" "F.Paste" "F.Mask") (roundrect_rratio 0.25) (tstamp fb51e184-b646-4e18-948a-20e81356eab5))
  (pad "25" smd roundrect (at -4.225 -3.575) (size 0.4 0.4) (layers "F.Cu" "F.Paste" "F.Mask") (roundrect_rratio 0.25) (tstamp 01f226da-d210-4a34-915b-2341ce7f92a2))
  (pad "26" smd roundrect (at -3.575 -3.575) (size 0.4 0.4) (layers "F.Cu" "F.Paste" "F.Mask") (roundrect_rratio 0.25) (tstamp 2adb3a72-10a6-44f3-b4e0-062ad33f7397))
  (pad "27" smd roundrect (at -4.225 -4.225) (size 0.4 0.4) (layers "F.Cu" "F.Paste" "F.Mask") (roundrect_rratio 0.25) (tstamp 48cd1ab4-fa70-47f7-bf8b-09186718b8d5))
  (pad "28" smd roundrect (at -3.575 -4.225) (size 0.4 0.4) (layers "F.Cu" "F.Paste" "F.Mask") (roundrect_rratio 0.25) (tstamp 1943ca21-87e2-47e8-abfd-341b04b1bebd))
  (pad "29" smd roundrect (at -1.95 3.9) (size 0.4 0.4) (layers "F.Cu" "F.Paste" "F.Mask") (roundrect_rratio 0.25) (tstamp 4996a9ce-7fc7-43c7-a3d3-3302a802be4a))
  (pad "30" smd roundrect (at -1.95 2.6) (size 0.4 0.4) (layers "F.Cu" "F.Paste" "F.Mask") (roundrect_rratio 0.25) (tstamp 3ef3ddc1-c8a8-496c-ad4a-48b148357ade))
  (pad "31" smd roundrect (at -1.95 1.3) (size 0.4 0.4) (layers "F.Cu" "F.Paste" "F.Mask") (roundrect_rratio 0.25) (tstamp a44cbd89-ea07-46f0-b90e-d581caedbb55))
  (pad "32" smd roundrect (at -1.95 0) (size 0.4 0.4) (layers "F.Cu" "F.Paste" "F.Mask") (roundrect_rratio 0.25) (tstamp 902a6d7d-a427-41e3-b565-0b3520206d0e))
  (pad "33" smd roundrect (at -1.95 -1.3) (size 0.4 0.4) (layers "F.Cu" "F.Paste" "F.Mask") (roundrect_rratio 0.25) (tstamp 8760adc9-714e-40ec-9bf0-b4571ea5cf3a))
  (pad "34" smd roundrect (at -1.95 -2.6) (size 0.4 0.4) (layers "F.Cu" "F.Paste" "F.Mask") (roundrect_rratio 0.25) (tstamp 4dd9829e-fa2b-40d3-b1dd-ab253e4fda63))
  (pad "35" smd roundrect (at -1.95 -3.9) (size 0.4 0.4) (layers "F.Cu" "F.Paste" "F.Mask") (roundrect_rratio 0.25) (tstamp fb20fdbd-9b56-4792-bbe4-328b93948e56))
  (pad "36" smd roundrect (at 0.65 3.9) (size 0.4 0.4) (layers "F.Cu" "F.Paste" "F.Mask") (roundrect_rratio 0.25) (tstamp e2323bf2-9518-4209-8957-197d34cd1fe5))
  (pad "37" smd roundrect (at 0.65 2.6) (size 0.4 0.4) (layers "F.Cu" "F.Paste" "F.Mask") (roundrect_rratio 0.25) (tstamp dd58f6ac-f3de-4f43-9c00-207847a498a5))
  (pad "38" smd roundrect (at 0.65 1.3) (size 0.4 0.4) (layers "F.Cu" "F.Paste" "F.Mask") (roundrect_rratio 0.25) (tstamp e58958ae-2496-451b-b1bb-732eb68de27e))
  (pad "39" smd roundrect (at 0.65 0) (size 0.4 0.4) (layers "F.Cu" "F.Paste" "F.Mask") (roundrect_rratio 0.25) (tstamp 68ff57c9-3373-4eb1-a195-c07bfc7d1cb7))
  (pad "40" smd roundrect (at 0.65 -1.3) (size 0.4 0.4) (layers "F.Cu" "F.Paste" "F.Mask") (roundrect_rratio 0.25) (tstamp 7f979733-9f9d-498c-a4d0-b7cfd2c8336a))
  (pad "41" smd roundrect (at 0.65 -2.6) (size 0.4 0.4) (layers "F.Cu" "F.Paste" "F.Mask") (roundrect_rratio 0.25) (tstamp c4fe9ad9-3849-4b74-9fd4-d672c94d3068))
  (pad "42" smd roundrect (at 0.65 -3.9) (size 0.4 0.4) (layers "F.Cu" "F.Paste" "F.Mask") (roundrect_rratio 0.25) (tstamp fbc32cfc-84d0-4506-bb64-79c0900d55ae))
  (pad "43" smd roundrect (at 3.25 3.9) (size 0.4 0.4) (layers "F.Cu" "F.Paste" "F.Mask") (roundrect_rratio 0.25) (tstamp 2ebb12be-da1e-4ba3-9702-34535e1cbf99))
  (pad "44" smd roundrect (at 3.25 2.6) (size 0.4 0.4) (layers "F.Cu" "F.Paste" "F.Mask") (roundrect_rratio 0.25) (tstamp 66a88136-b54f-4d13-9653-19e22b6f1260))
  (pad "45" smd roundrect (at 3.25 1.3) (size 0.4 0.4) (layers "F.Cu" "F.Paste" "F.Mask") (roundrect_rratio 0.25) (tstamp e9b5857b-256f-44eb-858f-807847a3cf76))
  (pad "46" smd roundrect (at 3.25 0) (size 0.4 0.4) (layers "F.Cu" "F.Paste" "F.Mask") (roundrect_rratio 0.25) (tstamp e9890165-a53a-4028-86f2-24a0cba73ca4))
  (pad "47" smd roundrect (at 3.25 -1.3) (size 0.4 0.4) (layers "F.Cu" "F.Paste" "F.Mask") (roundrect_rratio 0.25) (tstamp 71d70a76-a3db-4eba-99f7-d2f6727049b6))
  (pad "48" smd roundrect (at 3.25 -2.6) (size 0.4 0.4) (layers "F.Cu" "F.Paste" "F.Mask") (roundrect_rratio 0.25) (tstamp 1f9c2127-678b-4985-b963-95d0c61786b0))
  (pad "49" smd roundrect (at 3.25 -3.9) (size 0.4 0.4) (layers "F.Cu" "F.Paste" "F.Mask") (roundrect_rratio 0.25) (tstamp 0078b622-73b7-4b8e-bdcd-d1cd771cd802))
)
