(footprint "LGAD 1.3 6x6 D2 M1" (version 20211014) (generator pcbnew)
  (layer "F.Cu")
  (tedit 0)
  (attr smd)
  (fp_text reference "REF**" (at 0 -4.9 unlocked) (layer "F.SilkS")
    (effects (font (size 1 1) (thickness 0.15)))
    (tstamp b754402b-6e07-4ee8-a2e6-61243f1e3f0b)
  )
  (fp_text value "LGAD 1.3 6x6 D2 M1" (at 0 5 unlocked) (layer "F.Fab")
    (effects (font (size 1 1) (thickness 0.15)))
    (tstamp b452a717-ab98-4316-a98a-65fe43d22d95)
  )
  (fp_text user "${REFERENCE}" (at 0 6.3 unlocked) (layer "F.Fab")
    (effects (font (size 1 1) (thickness 0.15)))
    (tstamp f5dd7e27-7278-4e8c-a48f-1defc275f1f9)
  )
  (fp_rect (start -3.9 3.25) (end -3.575 3.9) (layer "F.SilkS") (width 0.12) (fill solid) (tstamp 2231a115-4372-4d81-bf07-133f90e2214a))
  (fp_rect (start -4.2 -4.2) (end 4.2 4.2) (layer "F.SilkS") (width 0.12) (fill none) (tstamp ddfd29fe-0b43-4fe4-9292-38c5cc73b133))
  (fp_line (start -3.9 -1.95) (end -2.6 -1.95) (layer "Dwgs.User") (width 0.12) (tstamp 01ab2e48-f50d-46a2-a398-34bb9789bc20))
  (fp_line (start 3.9 1.3) (end -3.9 1.3) (layer "Dwgs.User") (width 0.12) (tstamp 0321e22f-369f-4678-867a-a00113362876))
  (fp_line (start 1.3 3.9) (end 1.3 -3.9) (layer "Dwgs.User") (width 0.12) (tstamp 0386f911-62fe-49d0-917e-c6628200062e))
  (fp_line (start -2.6 -3.9) (end -2.6 3.9) (layer "Dwgs.User") (width 0.12) (tstamp 0865d902-071f-4afa-8391-d953ec0f4cee))
  (fp_line (start -2.6 -0.65) (end -3.9 -0.65) (layer "Dwgs.User") (width 0.12) (tstamp 1b001b07-30d5-4320-aef5-03bb39e2a710))
  (fp_line (start -2.6 1.95) (end -3.9 1.95) (layer "Dwgs.User") (width 0.12) (tstamp 1d93abf6-2ac7-4559-a439-916a2614a6ae))
  (fp_line (start -3.9 2.6) (end 3.9 2.6) (layer "Dwgs.User") (width 0.12) (tstamp 2c1988df-b791-41b1-8c35-1238b84319f0))
  (fp_line (start -1.3 3.9) (end -1.3 -3.9) (layer "Dwgs.User") (width 0.12) (tstamp 5025418d-bcee-4e9d-b90d-a7f5864df374))
  (fp_line (start -3.9 0) (end 3.9 0) (layer "Dwgs.User") (width 0.12) (tstamp 5261310b-9c31-4107-af35-93d79d662138))
  (fp_line (start 0 -3.9) (end 0 3.9) (layer "Dwgs.User") (width 0.12) (tstamp 8b12eb11-f8b7-440d-9227-5f24acc645a2))
  (fp_line (start -3.9 3.25) (end -2.6 3.25) (layer "Dwgs.User") (width 0.12) (tstamp 8ea342ca-cdf6-47fa-a2a0-f7974e7e5906))
  (fp_line (start -3.9 -2.6) (end 3.9 -2.6) (layer "Dwgs.User") (width 0.12) (tstamp 9b7ffb4a-3a58-4cc8-b790-4515366845c6))
  (fp_line (start -2.6 -3.25) (end -3.9 -3.25) (layer "Dwgs.User") (width 0.12) (tstamp 9d283304-473b-4a7a-ac89-8f01c35b638b))
  (fp_line (start 3.9 -1.3) (end -3.9 -1.3) (layer "Dwgs.User") (width 0.12) (tstamp b2635b86-fece-4985-a702-17f4341b7c32))
  (fp_line (start -3.9 0.65) (end -2.6 0.65) (layer "Dwgs.User") (width 0.12) (tstamp ca0c25e8-2b54-4628-9b61-6b47b222a522))
  (fp_rect (start -3.9 -3.9) (end 3.9 3.9) (layer "Dwgs.User") (width 0.12) (fill none) (tstamp a4b7dcec-1184-4766-85ba-a3283ee7cab1))
  (fp_rect (start -4.2 -4.2) (end 4.2 4.2) (layer "F.CrtYd") (width 0.05) (fill none) (tstamp 498d2ed2-8a35-4524-98a3-2fbbe8343277))
  (pad "1" smd roundrect (at -3.25 3.575) (size 0.4 0.4) (layers "F.Cu" "F.Paste" "F.Mask") (roundrect_rratio 0.25) (tstamp 0b2ad2ba-c922-434d-b317-f16f400f155e))
  (pad "2" smd roundrect (at -3.25 2.925) (size 0.4 0.4) (layers "F.Cu" "F.Paste" "F.Mask") (roundrect_rratio 0.25) (tstamp bca2d0eb-9aeb-460b-be2d-bfc6713ab2a0))
  (pad "3" smd roundrect (at -3.25 2.275) (size 0.4 0.4) (layers "F.Cu" "F.Paste" "F.Mask") (roundrect_rratio 0.25) (tstamp 0e0736cf-e654-4412-89f1-429038b8718b))
  (pad "4" smd roundrect (at -3.25 1.625) (size 0.4 0.4) (layers "F.Cu" "F.Paste" "F.Mask") (roundrect_rratio 0.25) (tstamp 1feb38a0-2582-47cf-ac07-3809f3dd33e9))
  (pad "5" smd roundrect (at -3.25 0.975) (size 0.4 0.4) (layers "F.Cu" "F.Paste" "F.Mask") (roundrect_rratio 0.25) (tstamp b67eb236-3785-4764-ba59-41528510bf92))
  (pad "6" smd roundrect (at -3.25 0.325) (size 0.4 0.4) (layers "F.Cu" "F.Paste" "F.Mask") (roundrect_rratio 0.25) (tstamp bf2d9859-c7f4-4733-ad32-37304cde4772))
  (pad "7" smd roundrect (at -3.25 -0.325) (size 0.4 0.4) (layers "F.Cu" "F.Paste" "F.Mask") (roundrect_rratio 0.25) (tstamp 714db5f9-a31e-4928-a268-868539ed13c6))
  (pad "8" smd roundrect (at -3.25 -0.975) (size 0.4 0.4) (layers "F.Cu" "F.Paste" "F.Mask") (roundrect_rratio 0.25) (tstamp 2b45b3e2-92c8-4549-86cf-854a6148d9d9))
  (pad "9" smd roundrect (at -3.25 -1.625) (size 0.4 0.4) (layers "F.Cu" "F.Paste" "F.Mask") (roundrect_rratio 0.25) (tstamp 822bd801-d31c-4161-a480-812d40c8984a))
  (pad "10" smd roundrect (at -3.25 -2.275) (size 0.4 0.4) (layers "F.Cu" "F.Paste" "F.Mask") (roundrect_rratio 0.25) (tstamp 55c1f6c4-bde4-4712-88cf-cce3a65179dc))
  (pad "11" smd roundrect (at -3.25 -2.925) (size 0.4 0.4) (layers "F.Cu" "F.Paste" "F.Mask") (roundrect_rratio 0.25) (tstamp 26316088-39ef-4daa-89bf-b31316ef18a7))
  (pad "12" smd roundrect (at -3.25 -3.575) (size 0.4 0.4) (layers "F.Cu" "F.Paste" "F.Mask") (roundrect_rratio 0.25) (tstamp 716ccb2e-e68a-434f-ae11-9aaa09148d07))
  (pad "13" smd roundrect (at -1.95 3.25) (size 0.4 0.4) (layers "F.Cu" "F.Paste" "F.Mask") (roundrect_rratio 0.25) (tstamp abdb5646-6b78-4f2c-8e5a-758db9d873e9))
  (pad "14" smd roundrect (at -1.95 1.95) (size 0.4 0.4) (layers "F.Cu" "F.Paste" "F.Mask") (roundrect_rratio 0.25) (tstamp 2695408c-354f-4793-856a-1c6198d3033d))
  (pad "15" smd roundrect (at -1.95 0.65) (size 0.4 0.4) (layers "F.Cu" "F.Paste" "F.Mask") (roundrect_rratio 0.25) (tstamp 061201ac-f9c1-4ebd-9986-7b16132d4f07))
  (pad "16" smd roundrect (at -1.95 -0.65) (size 0.4 0.4) (layers "F.Cu" "F.Paste" "F.Mask") (roundrect_rratio 0.25) (tstamp 8c72472d-1ca6-4593-a147-22c73f818c54))
  (pad "17" smd roundrect (at -1.95 -1.95) (size 0.4 0.4) (layers "F.Cu" "F.Paste" "F.Mask") (roundrect_rratio 0.25) (tstamp 58e55c5e-bbcd-4f45-ad4e-c29a4d993a24))
  (pad "18" smd roundrect (at -1.95 -3.25) (size 0.4 0.4) (layers "F.Cu" "F.Paste" "F.Mask") (roundrect_rratio 0.25) (tstamp 7ff40e22-7775-4b16-a9c3-41f4f3fc4e6c))
  (pad "19" smd roundrect (at -0.65 3.25) (size 0.4 0.4) (layers "F.Cu" "F.Paste" "F.Mask") (roundrect_rratio 0.25) (tstamp d0960c96-a727-4664-b257-91359941cdb1))
  (pad "20" smd roundrect (at -0.65 1.95) (size 0.4 0.4) (layers "F.Cu" "F.Paste" "F.Mask") (roundrect_rratio 0.25) (tstamp a41cd996-933f-4c0d-8b03-0d623b4ce709))
  (pad "21" smd roundrect (at -0.65 0.65) (size 0.4 0.4) (layers "F.Cu" "F.Paste" "F.Mask") (roundrect_rratio 0.25) (tstamp 4b2fa940-16b3-4b10-abdc-70ff818acc99))
  (pad "22" smd roundrect (at -0.65 -0.65) (size 0.4 0.4) (layers "F.Cu" "F.Paste" "F.Mask") (roundrect_rratio 0.25) (tstamp 95292449-73f3-4d78-a086-9892e8650ce6))
  (pad "23" smd roundrect (at -0.65 -1.95) (size 0.4 0.4) (layers "F.Cu" "F.Paste" "F.Mask") (roundrect_rratio 0.25) (tstamp fe0bfb2a-840f-4350-b9dc-8e05e39d3736))
  (pad "24" smd roundrect (at -0.65 -3.25) (size 0.4 0.4) (layers "F.Cu" "F.Paste" "F.Mask") (roundrect_rratio 0.25) (tstamp 6a0c230f-bdb4-4b52-ba40-269fb133c0d3))
  (pad "25" smd roundrect (at 0.65 3.25) (size 0.4 0.4) (layers "F.Cu" "F.Paste" "F.Mask") (roundrect_rratio 0.25) (tstamp 1c2e767b-336c-478c-b96a-5a32acb0c9f2))
  (pad "26" smd roundrect (at 0.65 1.95) (size 0.4 0.4) (layers "F.Cu" "F.Paste" "F.Mask") (roundrect_rratio 0.25) (tstamp 96193f63-da9a-4838-bb09-05f66eb7fa86))
  (pad "27" smd roundrect (at 0.65 0.65) (size 0.4 0.4) (layers "F.Cu" "F.Paste" "F.Mask") (roundrect_rratio 0.25) (tstamp 1d87c9dc-5bb7-44d5-b17d-0cd65957a07b))
  (pad "28" smd roundrect (at 0.65 -0.65) (size 0.4 0.4) (layers "F.Cu" "F.Paste" "F.Mask") (roundrect_rratio 0.25) (tstamp 5121a52b-771c-453d-ac4d-d82baf33a6e2))
  (pad "29" smd roundrect (at 0.65 -1.95) (size 0.4 0.4) (layers "F.Cu" "F.Paste" "F.Mask") (roundrect_rratio 0.25) (tstamp 04e3c093-a5b6-4243-a2d0-eea776aefdd4))
  (pad "30" smd roundrect (at 0.65 -3.25) (size 0.4 0.4) (layers "F.Cu" "F.Paste" "F.Mask") (roundrect_rratio 0.25) (tstamp 0fcdd8e8-ff7c-4a06-a1f1-cc0449186c85))
  (pad "31" smd roundrect (at 2.6 3.25) (size 0.4 0.4) (layers "F.Cu" "F.Paste" "F.Mask") (roundrect_rratio 0.25) (tstamp 976dcd50-58ea-4bd8-97f9-8195ab62ea5a))
  (pad "32" smd roundrect (at 2.6 1.95) (size 0.4 0.4) (layers "F.Cu" "F.Paste" "F.Mask") (roundrect_rratio 0.25) (tstamp 6cc5a018-4f51-46ae-a694-81d3230f74e9))
  (pad "33" smd roundrect (at 2.6 0.65) (size 0.4 0.4) (layers "F.Cu" "F.Paste" "F.Mask") (roundrect_rratio 0.25) (tstamp 72173e76-2cf5-45dc-ad25-209938fa2457))
  (pad "34" smd roundrect (at 2.6 -0.65) (size 0.4 0.4) (layers "F.Cu" "F.Paste" "F.Mask") (roundrect_rratio 0.25) (tstamp 08386b1e-eee6-4b53-a8e8-e0f4b51865c9))
  (pad "35" smd roundrect (at 2.6 -1.95) (size 0.4 0.4) (layers "F.Cu" "F.Paste" "F.Mask") (roundrect_rratio 0.25) (tstamp 7c20f605-6adf-418a-ad3f-b48caf38d1e9))
  (pad "36" smd roundrect (at 2.6 -3.25) (size 0.4 0.4) (layers "F.Cu" "F.Paste" "F.Mask") (roundrect_rratio 0.25) (tstamp 7b36d23c-7add-40aa-b5f4-ddc932a83058))
)
